%!PS-Adobe-3.0 EPSF-3.0
%%Title: images/bulkmodulus-volume.eps
%%Creator: matplotlib version 1.3.0, http://matplotlib.org/
%%CreationDate: Wed Dec  4 20:30:49 2013
%%Orientation: portrait
%%BoundingBox: 198 252 414 540
%%EndComments
%%BeginProlog
/mpldict 10 dict def
mpldict begin
/m { moveto } bind def
/l { lineto } bind def
/r { rlineto } bind def
/c { curveto } bind def
/cl { closepath } bind def
/box {
m
1 index 0 r
0 exch r
neg 0 r
cl
} bind def
/clipbox {
box
clip
newpath
} bind def
%!PS-Adobe-3.0 Resource-Font
%%Title: Bitstream Vera Sans
%%Copyright: Copyright (c) 2003 by Bitstream, Inc. All Rights Reserved.
%%Creator: Converted from TrueType to type 3 by PPR
25 dict begin
/_d{bind def}bind def
/_m{moveto}_d
/_l{lineto}_d
/_cl{closepath eofill}_d
/_c{curveto}_d
/_sc{7 -1 roll{setcachedevice}{pop pop pop pop pop pop}ifelse}_d
/_e{exec}_d
/FontName /BitstreamVeraSans-Roman def
/PaintType 0 def
/FontMatrix[.001 0 0 .001 0 0]def
/FontBBox[-183 -236 1287 928]def
/FontType 3 def
/Encoding [ /space /parenleft /parenright /period /slash /zero /one /two /three /four /five /A /B /C /F /G /I /M /O /P /R /S /T /V /a /b /d /e /f /i /k /l /m /n /o /r /s /t /u /y ] def
/FontInfo 10 dict dup begin
/FamilyName (Bitstream Vera Sans) def
/FullName (Bitstream Vera Sans) def
/Notice (Copyright (c) 2003 by Bitstream, Inc. All Rights Reserved. Bitstream Vera is a trademark of Bitstream, Inc.) def
/Weight (Roman) def
/Version (Release 1.10) def
/ItalicAngle 0.0 def
/isFixedPitch false def
/UnderlinePosition -213 def
/UnderlineThickness 143 def
end readonly def
/CharStrings 40 dict dup begin
/space{318 0 0 0 0 0 _sc
}_d
/parenleft{390 0 86 -131 310 759 _sc
310 759 _m
266 683 234 609 213 536 _c
191 463 181 389 181 314 _c
181 238 191 164 213 91 _c
234 17 266 -56 310 -131 _c
232 -131 _l
183 -54 146 20 122 94 _c
98 168 86 241 86 314 _c
86 386 98 459 122 533 _c
146 607 182 682 232 759 _c
310 759 _l
_cl}_d
/parenright{390 0 80 -131 304 759 _sc
80 759 _m
158 759 _l
206 682 243 607 267 533 _c
291 459 304 386 304 314 _c
304 241 291 168 267 94 _c
243 20 206 -54 158 -131 _c
80 -131 _l
123 -56 155 17 177 91 _c
198 164 209 238 209 314 _c
209 389 198 463 177 536 _c
155 609 123 683 80 759 _c
_cl}_d
/period{318 0 107 0 210 124 _sc
107 124 _m
210 124 _l
210 0 _l
107 0 _l
107 124 _l
_cl}_d
/slash{337 0 0 -92 337 729 _sc
254 729 _m
337 729 _l
83 -92 _l
0 -92 _l
254 729 _l
_cl}_d
/zero{636 0 66 -13 570 742 _sc
318 664 _m
267 664 229 639 203 589 _c
177 539 165 464 165 364 _c
165 264 177 189 203 139 _c
229 89 267 64 318 64 _c
369 64 407 89 433 139 _c
458 189 471 264 471 364 _c
471 464 458 539 433 589 _c
407 639 369 664 318 664 _c
318 742 _m
399 742 461 709 505 645 _c
548 580 570 486 570 364 _c
570 241 548 147 505 83 _c
461 19 399 -13 318 -13 _c
236 -13 173 19 130 83 _c
87 147 66 241 66 364 _c
66 486 87 580 130 645 _c
173 709 236 742 318 742 _c
_cl}_d
/one{636 0 110 0 544 729 _sc
124 83 _m
285 83 _l
285 639 _l
110 604 _l
110 694 _l
284 729 _l
383 729 _l
383 83 _l
544 83 _l
544 0 _l
124 0 _l
124 83 _l
_cl}_d
/two{{636 0 73 0 536 742 _sc
192 83 _m
536 83 _l
536 0 _l
73 0 _l
73 83 _l
110 121 161 173 226 239 _c
290 304 331 346 348 365 _c
380 400 402 430 414 455 _c
426 479 433 504 433 528 _c
433 566 419 598 392 622 _c
365 646 330 659 286 659 _c
255 659 222 653 188 643 _c
154 632 117 616 78 594 _c
78 694 _l
118 710 155 722 189 730 _c
223 738 255 742 284 742 _c
}_e{359 742 419 723 464 685 _c
509 647 532 597 532 534 _c
532 504 526 475 515 449 _c
504 422 484 390 454 354 _c
446 344 420 317 376 272 _c
332 227 271 164 192 83 _c
_cl}_e}_d
/three{{636 0 76 -13 556 742 _sc
406 393 _m
453 383 490 362 516 330 _c
542 298 556 258 556 212 _c
556 140 531 84 482 45 _c
432 6 362 -13 271 -13 _c
240 -13 208 -10 176 -4 _c
144 1 110 10 76 22 _c
76 117 _l
103 101 133 89 166 81 _c
198 73 232 69 268 69 _c
330 69 377 81 409 105 _c
441 129 458 165 458 212 _c
458 254 443 288 413 312 _c
383 336 341 349 287 349 _c
}_e{202 349 _l
202 430 _l
291 430 _l
339 430 376 439 402 459 _c
428 478 441 506 441 543 _c
441 580 427 609 401 629 _c
374 649 336 659 287 659 _c
260 659 231 656 200 650 _c
169 644 135 635 98 623 _c
98 711 _l
135 721 170 729 203 734 _c
235 739 266 742 296 742 _c
370 742 429 725 473 691 _c
517 657 539 611 539 553 _c
539 513 527 479 504 451 _c
481 423 448 403 406 393 _c
_cl}_e}_d
/four{636 0 49 0 580 729 _sc
378 643 _m
129 254 _l
378 254 _l
378 643 _l
352 729 _m
476 729 _l
476 254 _l
580 254 _l
580 172 _l
476 172 _l
476 0 _l
378 0 _l
378 172 _l
49 172 _l
49 267 _l
352 729 _l
_cl}_d
/five{{636 0 77 -13 549 729 _sc
108 729 _m
495 729 _l
495 646 _l
198 646 _l
198 467 _l
212 472 227 476 241 478 _c
255 480 270 482 284 482 _c
365 482 429 459 477 415 _c
525 370 549 310 549 234 _c
549 155 524 94 475 51 _c
426 8 357 -13 269 -13 _c
238 -13 207 -10 175 -6 _c
143 -1 111 6 77 17 _c
77 116 _l
106 100 136 88 168 80 _c
199 72 232 69 267 69 _c
}_e{323 69 368 83 401 113 _c
433 143 450 183 450 234 _c
450 284 433 324 401 354 _c
368 384 323 399 267 399 _c
241 399 214 396 188 390 _c
162 384 135 375 108 363 _c
108 729 _l
_cl}_e}_d
/A{684 0 8 0 676 729 _sc
342 632 _m
208 269 _l
476 269 _l
342 632 _l
286 729 _m
398 729 _l
676 0 _l
573 0 _l
507 187 _l
178 187 _l
112 0 _l
8 0 _l
286 729 _l
_cl}_d
/B{{686 0 98 0 615 729 _sc
197 348 _m
197 81 _l
355 81 _l
408 81 447 92 473 114 _c
498 136 511 169 511 215 _c
511 260 498 293 473 315 _c
447 337 408 348 355 348 _c
197 348 _l
197 648 _m
197 428 _l
343 428 _l
391 428 426 437 450 455 _c
474 473 486 500 486 538 _c
486 574 474 602 450 620 _c
426 638 391 648 343 648 _c
197 648 _l
98 729 _m
350 729 _l
}_e{425 729 483 713 524 682 _c
564 650 585 606 585 549 _c
585 504 574 468 553 442 _c
532 416 502 399 462 393 _c
510 382 548 360 575 327 _c
601 294 615 253 615 204 _c
615 138 592 88 548 53 _c
504 17 441 0 360 0 _c
98 0 _l
98 729 _l
_cl}_e}_d
/C{{698 0 56 -13 644 742 _sc
644 673 _m
644 569 _l
610 599 575 622 537 638 _c
499 653 460 661 418 661 _c
334 661 270 635 226 584 _c
182 533 160 460 160 364 _c
160 268 182 194 226 143 _c
270 92 334 67 418 67 _c
460 67 499 74 537 90 _c
575 105 610 128 644 159 _c
644 56 _l
609 32 572 15 534 4 _c
496 -7 455 -13 412 -13 _c
302 -13 215 20 151 87 _c
}_e{87 154 56 246 56 364 _c
56 481 87 573 151 641 _c
215 708 302 742 412 742 _c
456 742 497 736 535 725 _c
573 713 610 696 644 673 _c
_cl}_e}_d
/F{575 0 98 0 517 729 _sc
98 729 _m
517 729 _l
517 646 _l
197 646 _l
197 431 _l
486 431 _l
486 348 _l
197 348 _l
197 0 _l
98 0 _l
98 729 _l
_cl}_d
/G{{775 0 56 -13 693 742 _sc
595 104 _m
595 300 _l
434 300 _l
434 381 _l
693 381 _l
693 68 _l
655 40 613 20 567 7 _c
521 -6 472 -13 420 -13 _c
306 -13 216 20 152 86 _c
88 152 56 245 56 364 _c
56 482 88 575 152 642 _c
216 708 306 742 420 742 _c
467 742 512 736 555 724 _c
598 712 638 695 674 673 _c
674 568 _l
637 598 598 621 557 637 _c
516 653 473 661 428 661 _c
}_e{338 661 271 636 227 586 _c
182 536 160 462 160 364 _c
160 265 182 191 227 141 _c
271 91 338 67 428 67 _c
462 67 493 70 521 76 _c
549 82 573 91 595 104 _c
_cl}_e}_d
/I{295 0 98 0 197 729 _sc
98 729 _m
197 729 _l
197 0 _l
98 0 _l
98 729 _l
_cl}_d
/M{863 0 98 0 765 729 _sc
98 729 _m
245 729 _l
431 233 _l
618 729 _l
765 729 _l
765 0 _l
669 0 _l
669 640 _l
481 140 _l
382 140 _l
194 640 _l
194 0 _l
98 0 _l
98 729 _l
_cl}_d
/O{787 0 56 -13 731 742 _sc
394 662 _m
322 662 265 635 223 582 _c
181 528 160 456 160 364 _c
160 272 181 199 223 146 _c
265 92 322 66 394 66 _c
465 66 522 92 564 146 _c
606 199 627 272 627 364 _c
627 456 606 528 564 582 _c
522 635 465 662 394 662 _c
394 742 _m
496 742 577 707 639 639 _c
700 571 731 479 731 364 _c
731 248 700 157 639 89 _c
577 21 496 -13 394 -13 _c
291 -13 209 21 148 89 _c
86 157 56 248 56 364 _c
56 479 86 571 148 639 _c
209 707 291 742 394 742 _c
_cl}_d
/P{603 0 98 0 569 729 _sc
197 648 _m
197 374 _l
321 374 _l
367 374 402 385 427 409 _c
452 433 465 467 465 511 _c
465 555 452 588 427 612 _c
402 636 367 648 321 648 _c
197 648 _l
98 729 _m
321 729 _l
402 729 464 710 506 673 _c
548 636 569 582 569 511 _c
569 439 548 384 506 348 _c
464 311 402 293 321 293 _c
197 293 _l
197 0 _l
98 0 _l
98 729 _l
_cl}_d
/R{{695 0 98 0 666 729 _sc
444 342 _m
465 334 486 319 506 296 _c
526 272 546 240 566 199 _c
666 0 _l
560 0 _l
467 187 _l
443 235 419 268 397 284 _c
374 300 343 308 304 308 _c
197 308 _l
197 0 _l
98 0 _l
98 729 _l
321 729 _l
404 729 466 711 507 677 _c
548 642 569 589 569 519 _c
569 473 558 434 537 404 _c
515 374 484 353 444 342 _c
197 648 _m
197 389 _l
321 389 _l
}_e{368 389 404 400 428 422 _c
452 444 465 476 465 519 _c
465 561 452 593 428 615 _c
404 637 368 648 321 648 _c
197 648 _l
_cl}_e}_d
/S{{635 0 66 -13 579 742 _sc
535 705 _m
535 609 _l
497 627 462 640 429 649 _c
395 657 363 662 333 662 _c
279 662 237 651 208 631 _c
179 610 165 580 165 542 _c
165 510 174 485 194 469 _c
213 452 250 439 304 429 _c
364 417 _l
437 403 491 378 526 343 _c
561 307 579 260 579 201 _c
579 130 555 77 508 41 _c
460 5 391 -13 300 -13 _c
265 -13 228 -9 189 -2 _c
}_e{150 5 110 16 69 32 _c
69 134 _l
109 111 148 94 186 83 _c
224 71 262 66 300 66 _c
356 66 399 77 430 99 _c
460 121 476 152 476 194 _c
476 230 465 258 443 278 _c
421 298 385 313 335 323 _c
275 335 _l
201 349 148 372 115 404 _c
82 435 66 478 66 534 _c
66 598 88 649 134 686 _c
179 723 242 742 322 742 _c
356 742 390 739 426 733 _c
461 727 497 717 535 705 _c
}_e{_cl}_e}_d
/T{611 0 -2 0 614 729 _sc
-2 729 _m
614 729 _l
614 646 _l
355 646 _l
355 0 _l
256 0 _l
256 646 _l
-2 646 _l
-2 729 _l
_cl}_d
/V{684 0 8 0 676 729 _sc
286 0 _m
8 729 _l
111 729 _l
342 115 _l
573 729 _l
676 729 _l
398 0 _l
286 0 _l
_cl}_d
/a{{613 0 60 -13 522 560 _sc
343 275 _m
270 275 220 266 192 250 _c
164 233 150 205 150 165 _c
150 133 160 107 181 89 _c
202 70 231 61 267 61 _c
317 61 357 78 387 114 _c
417 149 432 196 432 255 _c
432 275 _l
343 275 _l
522 312 _m
522 0 _l
432 0 _l
432 83 _l
411 49 385 25 355 10 _c
325 -5 287 -13 243 -13 _c
187 -13 142 2 109 33 _c
76 64 60 106 60 159 _c
}_e{60 220 80 266 122 298 _c
163 329 224 345 306 345 _c
432 345 _l
432 354 _l
432 395 418 427 391 450 _c
364 472 326 484 277 484 _c
245 484 215 480 185 472 _c
155 464 127 453 100 439 _c
100 522 _l
132 534 164 544 195 550 _c
226 556 256 560 286 560 _c
365 560 424 539 463 498 _c
502 457 522 395 522 312 _c
_cl}_e}_d
/b{{635 0 91 -13 580 760 _sc
487 273 _m
487 339 473 390 446 428 _c
418 466 381 485 334 485 _c
286 485 249 466 222 428 _c
194 390 181 339 181 273 _c
181 207 194 155 222 117 _c
249 79 286 61 334 61 _c
381 61 418 79 446 117 _c
473 155 487 207 487 273 _c
181 464 _m
199 496 223 520 252 536 _c
281 552 316 560 356 560 _c
422 560 476 533 518 481 _c
559 428 580 359 580 273 _c
}_e{580 187 559 117 518 65 _c
476 13 422 -13 356 -13 _c
316 -13 281 -5 252 10 _c
223 25 199 49 181 82 _c
181 0 _l
91 0 _l
91 760 _l
181 760 _l
181 464 _l
_cl}_e}_d
/d{{635 0 55 -13 544 760 _sc
454 464 _m
454 760 _l
544 760 _l
544 0 _l
454 0 _l
454 82 _l
435 49 411 25 382 10 _c
353 -5 319 -13 279 -13 _c
213 -13 159 13 117 65 _c
75 117 55 187 55 273 _c
55 359 75 428 117 481 _c
159 533 213 560 279 560 _c
319 560 353 552 382 536 _c
411 520 435 496 454 464 _c
148 273 _m
148 207 161 155 188 117 _c
215 79 253 61 301 61 _c
}_e{348 61 385 79 413 117 _c
440 155 454 207 454 273 _c
454 339 440 390 413 428 _c
385 466 348 485 301 485 _c
253 485 215 466 188 428 _c
161 390 148 339 148 273 _c
_cl}_e}_d
/e{{615 0 55 -13 562 560 _sc
562 296 _m
562 252 _l
149 252 _l
153 190 171 142 205 110 _c
238 78 284 62 344 62 _c
378 62 412 66 444 74 _c
476 82 509 95 541 113 _c
541 28 _l
509 14 476 3 442 -3 _c
408 -9 373 -13 339 -13 _c
251 -13 182 12 131 62 _c
80 112 55 181 55 268 _c
55 357 79 428 127 481 _c
175 533 241 560 323 560 _c
397 560 455 536 498 489 _c
}_e{540 441 562 377 562 296 _c
472 322 _m
471 371 457 410 431 440 _c
404 469 368 484 324 484 _c
274 484 234 469 204 441 _c
174 413 156 373 152 322 _c
472 322 _l
_cl}_e}_d
/f{352 0 23 0 371 760 _sc
371 760 _m
371 685 _l
285 685 _l
253 685 230 678 218 665 _c
205 652 199 629 199 595 _c
199 547 _l
347 547 _l
347 477 _l
199 477 _l
199 0 _l
109 0 _l
109 477 _l
23 477 _l
23 547 _l
109 547 _l
109 585 _l
109 645 123 690 151 718 _c
179 746 224 760 286 760 _c
371 760 _l
_cl}_d
/i{278 0 94 0 184 760 _sc
94 547 _m
184 547 _l
184 0 _l
94 0 _l
94 547 _l
94 760 _m
184 760 _l
184 646 _l
94 646 _l
94 760 _l
_cl}_d
/k{579 0 91 0 576 760 _sc
91 760 _m
181 760 _l
181 311 _l
449 547 _l
564 547 _l
274 291 _l
576 0 _l
459 0 _l
181 267 _l
181 0 _l
91 0 _l
91 760 _l
_cl}_d
/l{278 0 94 0 184 760 _sc
94 760 _m
184 760 _l
184 0 _l
94 0 _l
94 760 _l
_cl}_d
/m{{974 0 91 0 889 560 _sc
520 442 _m
542 482 569 511 600 531 _c
631 550 668 560 711 560 _c
767 560 811 540 842 500 _c
873 460 889 403 889 330 _c
889 0 _l
799 0 _l
799 327 _l
799 379 789 418 771 444 _c
752 469 724 482 686 482 _c
639 482 602 466 575 435 _c
548 404 535 362 535 309 _c
535 0 _l
445 0 _l
445 327 _l
445 379 435 418 417 444 _c
398 469 369 482 331 482 _c
}_e{285 482 248 466 221 435 _c
194 404 181 362 181 309 _c
181 0 _l
91 0 _l
91 547 _l
181 547 _l
181 462 _l
201 495 226 520 255 536 _c
283 552 317 560 357 560 _c
397 560 430 550 458 530 _c
486 510 506 480 520 442 _c
_cl}_e}_d
/n{634 0 91 0 549 560 _sc
549 330 _m
549 0 _l
459 0 _l
459 327 _l
459 379 448 417 428 443 _c
408 469 378 482 338 482 _c
289 482 251 466 223 435 _c
195 404 181 362 181 309 _c
181 0 _l
91 0 _l
91 547 _l
181 547 _l
181 462 _l
202 494 227 519 257 535 _c
286 551 320 560 358 560 _c
420 560 468 540 500 501 _c
532 462 549 405 549 330 _c
_cl}_d
/o{612 0 55 -13 557 560 _sc
306 484 _m
258 484 220 465 192 427 _c
164 389 150 338 150 273 _c
150 207 163 156 191 118 _c
219 80 257 62 306 62 _c
354 62 392 80 420 118 _c
448 156 462 207 462 273 _c
462 337 448 389 420 427 _c
392 465 354 484 306 484 _c
306 560 _m
384 560 445 534 490 484 _c
534 433 557 363 557 273 _c
557 183 534 113 490 63 _c
445 12 384 -13 306 -13 _c
227 -13 165 12 121 63 _c
77 113 55 183 55 273 _c
55 363 77 433 121 484 _c
165 534 227 560 306 560 _c
_cl}_d
/r{411 0 91 0 411 560 _sc
411 463 _m
401 469 390 473 378 476 _c
366 478 353 480 339 480 _c
288 480 249 463 222 430 _c
194 397 181 350 181 288 _c
181 0 _l
91 0 _l
91 547 _l
181 547 _l
181 462 _l
199 495 224 520 254 536 _c
284 552 321 560 365 560 _c
371 560 378 559 386 559 _c
393 558 401 557 411 555 _c
411 463 _l
_cl}_d
/s{{521 0 54 -13 472 560 _sc
443 531 _m
443 446 _l
417 458 391 468 364 475 _c
336 481 308 485 279 485 _c
234 485 200 478 178 464 _c
156 450 145 430 145 403 _c
145 382 153 366 169 354 _c
185 342 217 330 265 320 _c
296 313 _l
360 299 405 279 432 255 _c
458 230 472 195 472 151 _c
472 100 452 60 412 31 _c
372 1 316 -13 246 -13 _c
216 -13 186 -10 154 -5 _c
}_e{122 0 89 8 54 20 _c
54 113 _l
87 95 120 82 152 74 _c
184 65 216 61 248 61 _c
290 61 323 68 346 82 _c
368 96 380 117 380 144 _c
380 168 371 187 355 200 _c
339 213 303 226 247 238 _c
216 245 _l
160 257 119 275 95 299 _c
70 323 58 356 58 399 _c
58 450 76 490 112 518 _c
148 546 200 560 268 560 _c
301 560 332 557 362 552 _c
391 547 418 540 443 531 _c
}_e{_cl}_e}_d
/t{392 0 27 0 368 702 _sc
183 702 _m
183 547 _l
368 547 _l
368 477 _l
183 477 _l
183 180 _l
183 135 189 106 201 94 _c
213 81 238 75 276 75 _c
368 75 _l
368 0 _l
276 0 _l
206 0 158 13 132 39 _c
106 65 93 112 93 180 _c
93 477 _l
27 477 _l
27 547 _l
93 547 _l
93 702 _l
183 702 _l
_cl}_d
/u{634 0 85 -13 543 547 _sc
85 216 _m
85 547 _l
175 547 _l
175 219 _l
175 167 185 129 205 103 _c
225 77 255 64 296 64 _c
344 64 383 79 411 110 _c
439 141 453 183 453 237 _c
453 547 _l
543 547 _l
543 0 _l
453 0 _l
453 84 _l
431 50 405 26 377 10 _c
348 -5 315 -13 277 -13 _c
214 -13 166 6 134 45 _c
101 83 85 140 85 216 _c
_cl}_d
/y{592 0 30 -207 562 547 _sc
322 -50 _m
296 -114 271 -157 247 -177 _c
223 -197 191 -207 151 -207 _c
79 -207 _l
79 -132 _l
132 -132 _l
156 -132 175 -126 189 -114 _c
203 -102 218 -75 235 -31 _c
251 9 _l
30 547 _l
125 547 _l
296 119 _l
467 547 _l
562 547 _l
322 -50 _l
_cl}_d
end readonly def

/BuildGlyph
 {exch begin
 CharStrings exch
 2 copy known not{pop /.notdef}if
 true 3 1 roll get exec
 end}_d

/BuildChar {
 1 index /Encoding get exch get
 1 index /BuildGlyph get exec
}_d

FontName currentdict end definefont pop
%!PS-Adobe-3.0 Resource-Font
%%Title: STIXGeneral-Regular
%%Copyright: Copyright (c) 2001-2010 by the STI Pub Companies, consisting of the American Chemical Society, the American Institute of Physics, the American Mathematical Society, the American Physical Society, Elsevier, Inc., and The Institute of Electrical and Electronic Engineers, Inc. Portions copyright (c) 1998-2003 by MicroPress, Inc. Portions copyright (c) 1990 by Elsevier, Inc. All rights reserved.
%%Creator: Converted from TrueType to type 3 by PPR
25 dict begin
/_d{bind def}bind def
/_m{moveto}_d
/_l{lineto}_d
/_cl{closepath eofill}_d
/_c{curveto}_d
/_sc{7 -1 roll{setcachedevice}{pop pop pop pop pop pop}ifelse}_d
/_e{exec}_d
/FontName /STIXGeneral-Regular def
/PaintType 0 def
/FontMatrix[.001 0 0 .001 0 0]def
/FontBBox[-970 -443 2000 1023]def
/FontType 3 def
/Encoding [ /uni212B ] def
/FontInfo 10 dict dup begin
/FamilyName (STIXGeneral) def
/FullName (STIXGeneral-Regular) def
/Notice (Copyright (c) 2001-2010 by the STI Pub Companies, consisting of the American Chemical Society, the American Institute of Physics, the American Mathematical Society, the American Physical Society, Elsevier, Inc., and The Institute of Electrical and Electronic Engineers, Inc. Portions copyright (c) 1998-2003 by MicroPress, Inc. Portions copyright (c) 1990 by Elsevier, Inc. All rights reserved. STIX Fonts(TM) is a trademark of The Institute of Electrical and Electronics Engineers, Inc.) def
/Weight (Regular) def
/Version (Version 1.0.0) def
/ItalicAngle 0.0 def
/isFixedPitch false def
/UnderlinePosition -75 def
/UnderlineThickness 50 def
end readonly def
/CharStrings 1 dict dup begin
/uni212B{{722 0 15 0 707 871 _sc
141 186 _m
346 673 _l
321 675 300 686 284 705 _c
268 723 260 746 260 772 _c
260 799 269 822 289 842 _c
309 861 333 871 361 871 _c
387 871 410 861 430 841 _c
449 821 459 798 459 771 _c
459 745 450 722 433 704 _c
415 685 394 674 368 672 _c
613 111 _l
627 76 640 53 652 41 _c
664 29 682 21 707 19 _c
707 0 _l
452 0 _l
452 19 _l
}_e{478 19 497 22 507 28 _c
516 32 521 40 521 52 _c
521 69 514 92 502 122 _c
461 216 _l
199 216 _l
153 102 _l
147 86 144 72 144 60 _c
144 44 149 34 160 28 _c
171 22 189 19 214 19 _c
214 0 _l
15 0 _l
15 19 _l
43 21 63 31 76 49 _c
88 67 110 112 141 186 _c
425 772 _m
425 790 418 805 405 818 _c
392 830 376 837 358 837 _c
}_e{340 837 325 830 313 817 _c
300 804 294 789 294 772 _c
294 753 300 737 313 725 _c
325 712 340 706 358 706 _c
376 706 392 712 405 725 _c
418 737 425 753 425 772 _c
447 257 _m
331 532 _l
216 257 _l
447 257 _l
_cl}_e}_d
end readonly def

/BuildGlyph
 {exch begin
 CharStrings exch
 2 copy known not{pop /.notdef}if
 true 3 1 roll get exec
 end}_d

/BuildChar {
 1 index /Encoding get exch get
 1 index /BuildGlyph get exec
}_d

FontName currentdict end definefont pop
%!PS-Adobe-3.0 Resource-Font
%%Title: cmr10
%%Copyright: Copyright (C) 1994, Basil K. Malyshev. All Rights Reserved.012BaKoMa Fonts Collection, Level-B.
%%Creator: Converted from TrueType to type 3 by PPR
25 dict begin
/_d{bind def}bind def
/_m{moveto}_d
/_l{lineto}_d
/_cl{closepath eofill}_d
/_c{curveto}_d
/_sc{7 -1 roll{setcachedevice}{pop pop pop pop pop pop}ifelse}_d
/_e{exec}_d
/FontName /Cmr10 def
/PaintType 0 def
/FontMatrix[.001 0 0 .001 0 0]def
/FontBBox[-44 -250 1009 750]def
/FontType 3 def
/Encoding [ /two /three ] def
/FontInfo 10 dict dup begin
/FamilyName (cmr10) def
/FullName (cmr10) def
/Notice (Copyright (C) 1994, Basil K. Malyshev. All Rights Reserved.012BaKoMa Fonts Collection, Level-B. ) def
/Weight (Regular) def
/Version (1.1/12-Nov-94) def
/ItalicAngle 0.0 def
/isFixedPitch false def
/UnderlinePosition -133 def
/UnderlineThickness 20 def
end readonly def
/CharStrings 2 dict dup begin
/two{{500 0 50 0 449 666 _sc
50 0 _m
50 27 _l
50 28 50 30 52 32 _c
207 204 _l
230 229 249 250 264 268 _c
278 285 293 305 307 327 _c
321 349 333 372 341 396 _c
349 419 354 444 354 470 _c
354 497 349 523 339 548 _c
329 573 314 593 294 608 _c
274 623 249 631 221 631 _c
192 631 166 622 143 605 _c
119 587 103 565 94 537 _c
96 537 100 538 105 538 _c
}_e{119 538 132 533 143 523 _c
153 513 159 500 159 484 _c
159 468 153 455 143 445 _c
132 434 119 429 105 429 _c
89 429 76 434 66 445 _c
55 456 50 469 50 484 _c
50 508 54 532 64 554 _c
73 576 86 595 104 613 _c
122 630 142 643 164 652 _c
186 661 210 666 236 666 _c
274 666 309 658 342 642 _c
375 626 401 603 420 573 _c
439 543 449 509 449 470 _c
}_e{449 441 442 414 430 388 _c
417 362 401 338 381 317 _c
361 295 336 271 305 244 _c
274 217 254 199 244 190 _c
131 81 _l
227 81 _l
274 81 313 81 345 82 _c
377 82 394 84 396 86 _c
404 94 412 125 420 178 _c
449 178 _l
421 0 _l
50 0 _l
_cl}_e}_d
/three{{500 0 42 -21 457 666 _sc
95 77 _m
111 54 132 37 158 26 _c
184 15 213 10 243 10 _c
281 10 309 26 325 59 _c
341 92 350 130 350 172 _c
350 190 348 209 345 228 _c
341 247 335 265 327 281 _c
319 297 308 310 294 320 _c
280 330 262 335 242 335 _c
176 335 _l
170 335 167 338 167 344 _c
167 353 _l
167 358 170 361 176 361 _c
231 365 _l
254 365 273 373 289 391 _c
}_e{305 409 316 430 323 456 _c
330 481 334 505 334 528 _c
334 560 326 586 311 606 _c
296 626 273 637 243 637 _c
217 637 193 632 170 622 _c
147 612 129 598 115 579 _c
116 579 117 580 118 580 _c
119 580 120 580 122 580 _c
137 580 150 574 160 564 _c
170 554 175 541 175 527 _c
175 512 170 499 160 489 _c
150 479 137 474 122 474 _c
107 474 94 479 84 489 _c
}_e{74 499 69 512 69 527 _c
69 555 77 580 95 601 _c
112 622 134 638 161 649 _c
188 660 215 666 243 666 _c
263 666 284 663 307 657 _c
329 651 350 642 368 631 _c
386 619 401 605 413 588 _c
424 570 430 550 430 528 _c
430 500 423 474 411 450 _c
399 426 382 406 360 389 _c
338 371 314 358 288 350 _c
317 344 345 333 371 317 _c
397 301 417 280 433 255 _c
}_e{449 229 457 202 457 173 _c
457 136 446 103 426 73 _c
406 43 379 19 347 3 _c
314 -13 279 -21 243 -21 _c
211 -21 180 -15 149 -3 _c
117 8 92 25 72 49 _c
52 73 42 101 42 135 _c
42 151 47 165 58 176 _c
69 187 83 193 100 193 _c
110 193 120 190 129 185 _c
138 180 145 173 150 164 _c
155 154 158 145 158 135 _c
158 118 152 104 141 93 _c
}_e{129 82 116 77 100 77 _c
95 77 _l
_cl}_e}_d
end readonly def

/BuildGlyph
 {exch begin
 CharStrings exch
 2 copy known not{pop /.notdef}if
 true 3 1 roll get exec
 end}_d

/BuildChar {
 1 index /Encoding get exch get
 1 index /BuildGlyph get exec
}_d

FontName currentdict end definefont pop
end
%%EndProlog
mpldict begin
198 252 translate
216 288 0 0 clipbox
gsave
0 0 m
216 0 l
216 288 l
0 288 l
cl
1.000 setgray
fill
grestore
gsave
48.51 45.902 m
197.955 45.902 l
197.955 270.72 l
48.51 270.72 l
cl
1.000 setgray
fill
grestore
1.000 setlinewidth
0 setlinejoin
0 setlinecap
[] 0 setdash
0.000 setgray
gsave
149.4 224.8 48.51 45.9 clipbox
/o {
gsave
newpath
translate
1.0 setlinewidth
0 setlinejoin
0 setlinecap
1.83697e-16 3 m
-2.85317 0.927051 l
-1.76336 -2.42705 l
1.76336 -2.42705 l
2.85317 0.927051 l
cl
gsave
0.000 0.000 1.000 setrgbcolor
fill
grestore
stroke
grestore
} bind def
61.4902 208.092 o
65.7825 189.897 o
65.702 192.736 o
72.0634 173.545 o
grestore
gsave
149.4 224.8 48.51 45.9 clipbox
/o {
gsave
newpath
translate
1.0 setlinewidth
0 setlinejoin
0 setlinecap
-1.9984e-16 -4.24264 m
2.54558 0 l
2.44249e-16 4.24264 l
-2.54558 8.88178e-16 l
cl
gsave
0.000 0.000 1.000 setrgbcolor
fill
grestore
stroke
grestore
} bind def
70.751 196.642 o
75.3877 180.036 o
75.074 182.87 o
81.1215 166.299 o
grestore
gsave
149.4 224.8 48.51 45.9 clipbox
/o {
gsave
newpath
translate
1.0 setlinewidth
0 setlinejoin
0 setlinecap
0 3 m
-3 -3 l
3 -3 l
cl
gsave
0.000 0.000 1.000 setrgbcolor
fill
grestore
stroke
grestore
} bind def
85.8374 155.368 o
91.6271 141.567 o
90.6421 145.747 o
97.1713 126.529 o
grestore
1 setlinejoin
gsave
149.4 224.8 48.51 45.9 clipbox
/o {
gsave
newpath
translate
1.0 setlinewidth
1 setlinejoin
0 setlinecap
0 -3 m
0.795609 -3 1.55874 -2.6839 2.12132 -2.12132 c
2.6839 -1.55874 3 -0.795609 3 0 c
3 0.795609 2.6839 1.55874 2.12132 2.12132 c
1.55874 2.6839 0.795609 3 0 3 c
-0.795609 3 -1.55874 2.6839 -2.12132 2.12132 c
-2.6839 1.55874 -3 0.795609 -3 0 c
-3 -0.795609 -2.6839 -1.55874 -2.12132 -2.12132 c
-1.55874 -2.6839 -0.795609 -3 0 -3 c
cl
gsave
0.000 0.000 1.000 setrgbcolor
fill
grestore
stroke
grestore
} bind def
90.2115 165.409 o
95.6301 145.719 o
95.0143 150.634 o
101.648 132.67 o
grestore
0 setlinejoin
gsave
149.4 224.8 48.51 45.9 clipbox
/o {
gsave
newpath
translate
1.0 setlinewidth
0 setlinejoin
0 setlinecap
-3.67394e-16 -3 m
3 3 l
-3 3 l
cl
gsave
0.000 0.000 1.000 setrgbcolor
fill
grestore
stroke
grestore
} bind def
97.5375 149.363 o
103.006 130.764 o
102.13 136.41 o
108.909 116.235 o
grestore
gsave
149.4 224.8 48.51 45.9 clipbox
/o {
gsave
newpath
translate
1.0 setlinewidth
0 setlinejoin
0 setlinecap
-3 -3 m
3 -3 l
3 3 l
-3 3 l
cl
gsave
0.000 0.000 1.000 setrgbcolor
fill
grestore
stroke
grestore
} bind def
112.935 111.397 o
118.214 104.549 o
117.596 104.883 o
124.172 99.4227 o
grestore
gsave
149.4 224.8 48.51 45.9 clipbox
/o {
gsave
newpath
translate
1.0 setlinewidth
0 setlinejoin
0 setlinecap
1.83697e-16 3 m
-2.85317 0.927051 l
-1.76336 -2.42705 l
1.76336 -2.42705 l
2.85317 0.927051 l
cl
gsave
1.000 0.000 0.000 setrgbcolor
fill
grestore
stroke
grestore
} bind def
48.8325 221.68 o
52.504 201.897 o
52.6566 204.636 o
59.071 182.205 o
grestore
gsave
149.4 224.8 48.51 45.9 clipbox
/o {
gsave
newpath
translate
1.0 setlinewidth
0 setlinejoin
0 setlinecap
-1.9984e-16 -4.24264 m
2.54558 0 l
2.44249e-16 4.24264 l
-2.54558 8.88178e-16 l
cl
gsave
1.000 0.000 0.000 setrgbcolor
fill
grestore
stroke
grestore
} bind def
54.2334 213.861 o
58.0552 195.212 o
58.9543 198.374 o
65.0252 178.167 o
grestore
gsave
149.4 224.8 48.51 45.9 clipbox
/o {
gsave
newpath
translate
1.0 setlinewidth
0 setlinejoin
0 setlinecap
0 3 m
-3 -3 l
3 -3 l
cl
gsave
1.000 0.000 0.000 setrgbcolor
fill
grestore
stroke
grestore
} bind def
69.2686 166.442 o
73.4264 149.906 o
73.7848 153.062 o
80.282 132.545 o
grestore
1 setlinejoin
gsave
149.4 224.8 48.51 45.9 clipbox
/o {
gsave
newpath
translate
1.0 setlinewidth
1 setlinejoin
0 setlinecap
0 -3 m
0.795609 -3 1.55874 -2.6839 2.12132 -2.12132 c
2.6839 -1.55874 3 -0.795609 3 0 c
3 0.795609 2.6839 1.55874 2.12132 2.12132 c
1.55874 2.6839 0.795609 3 0 3 c
-0.795609 3 -1.55874 2.6839 -2.12132 2.12132 c
-2.6839 1.55874 -3 0.795609 -3 0 c
-3 -0.795609 -2.6839 -1.55874 -2.12132 -2.12132 c
-1.55874 -2.6839 -0.795609 -3 0 -3 c
cl
gsave
1.000 0.000 0.000 setrgbcolor
fill
grestore
stroke
grestore
} bind def
71.0531 190.982 o
75.6103 170.322 o
75.273 174.731 o
82.2649 153.139 o
grestore
0 setlinejoin
gsave
149.4 224.8 48.51 45.9 clipbox
/o {
gsave
newpath
translate
1.0 setlinewidth
0 setlinejoin
0 setlinecap
-3.67394e-16 -3 m
3 3 l
-3 3 l
cl
gsave
1.000 0.000 0.000 setrgbcolor
fill
grestore
stroke
grestore
} bind def
68.6819 124.883 o
74.5044 104.97 o
74.3375 109.614 o
83.2384 81.9361 o
grestore
gsave
149.4 224.8 48.51 45.9 clipbox
/o {
gsave
newpath
translate
1.0 setlinewidth
0 setlinejoin
0 setlinecap
-3 -3 m
3 -3 l
3 3 l
-3 3 l
cl
gsave
1.000 0.000 0.000 setrgbcolor
fill
grestore
stroke
grestore
} bind def
71.6161 98.4068 o
75.7874 80.4587 o
grestore
gsave
149.4 224.8 48.51 45.9 clipbox
/o {
gsave
newpath
translate
1.0 setlinewidth
0 setlinejoin
0 setlinecap
1.83697e-16 3 m
-2.85317 0.927051 l
-1.76336 -2.42705 l
1.76336 -2.42705 l
2.85317 0.927051 l
cl
gsave
0.000 0.502 0.000 setrgbcolor
fill
grestore
stroke
grestore
} bind def
63.0436 243.965 o
66.5029 222.486 o
67.1003 224.303 o
74.5449 195.609 o
grestore
gsave
149.4 224.8 48.51 45.9 clipbox
/o {
gsave
newpath
translate
1.0 setlinewidth
0 setlinejoin
0 setlinecap
-1.9984e-16 -4.24264 m
2.54558 0 l
2.44249e-16 4.24264 l
-2.54558 8.88178e-16 l
cl
gsave
0.000 0.502 0.000 setrgbcolor
fill
grestore
stroke
grestore
} bind def
69.3495 231.962 o
72.9292 212.141 o
73.5135 214.43 o
80.8259 188.746 o
grestore
gsave
149.4 224.8 48.51 45.9 clipbox
/o {
gsave
newpath
translate
1.0 setlinewidth
0 setlinejoin
0 setlinecap
0 3 m
-3 -3 l
3 -3 l
cl
gsave
0.000 0.502 0.000 setrgbcolor
fill
grestore
stroke
grestore
} bind def
87.0864 166.335 o
92.5534 154.798 o
92.4672 155.44 o
100.306 140.723 o
grestore
1 setlinejoin
gsave
149.4 224.8 48.51 45.9 clipbox
/o {
gsave
newpath
translate
1.0 setlinewidth
1 setlinejoin
0 setlinecap
0 -3 m
0.795609 -3 1.55874 -2.6839 2.12132 -2.12132 c
2.6839 -1.55874 3 -0.795609 3 0 c
3 0.795609 2.6839 1.55874 2.12132 2.12132 c
1.55874 2.6839 0.795609 3 0 3 c
-0.795609 3 -1.55874 2.6839 -2.12132 2.12132 c
-2.6839 1.55874 -3 0.795609 -3 0 c
-3 -0.795609 -2.6839 -1.55874 -2.12132 -2.12132 c
-1.55874 -2.6839 -0.795609 -3 0 -3 c
cl
gsave
0.000 0.502 0.000 setrgbcolor
fill
grestore
stroke
grestore
} bind def
91.416 202.597 o
95.852 184.802 o
96.0942 187.111 o
103.705 165.731 o
grestore
0 setlinejoin
gsave
149.4 224.8 48.51 45.9 clipbox
/o {
gsave
newpath
translate
1.0 setlinewidth
0 setlinejoin
0 setlinecap
-3.67394e-16 -3 m
3 3 l
-3 3 l
cl
gsave
0.000 0.502 0.000 setrgbcolor
fill
grestore
stroke
grestore
} bind def
105.047 149.396 o
109.93 137.857 o
110.012 138.707 o
118.61 124.036 o
grestore
gsave
149.4 224.8 48.51 45.9 clipbox
/o {
gsave
newpath
translate
1.0 setlinewidth
0 setlinejoin
0 setlinecap
-3 -3 m
3 -3 l
3 3 l
-3 3 l
cl
gsave
0.000 0.502 0.000 setrgbcolor
fill
grestore
stroke
grestore
} bind def
125.667 146.781 o
130.207 133.929 o
130.696 134.963 o
139.967 120.219 o
grestore
gsave
149.4 224.8 48.51 45.9 clipbox
/o {
gsave
newpath
translate
1.0 setlinewidth
0 setlinejoin
0 setlinecap
1.83697e-16 3 m
-2.85317 0.927051 l
-1.76336 -2.42705 l
1.76336 -2.42705 l
2.85317 0.927051 l
cl
gsave
0.855 0.647 0.125 setrgbcolor
fill
grestore
stroke
grestore
} bind def
77.7035 232.56 o
80.7293 214.204 o
81.4124 215.857 o
89.16 189.242 o
grestore
gsave
149.4 224.8 48.51 45.9 clipbox
/o {
gsave
newpath
translate
1.0 setlinewidth
0 setlinejoin
0 setlinecap
-1.9984e-16 -4.24264 m
2.54558 0 l
2.44249e-16 4.24264 l
-2.54558 8.88178e-16 l
cl
gsave
0.855 0.647 0.125 setrgbcolor
fill
grestore
stroke
grestore
} bind def
74.0446 240.1 o
76.996 222.203 o
77.6828 222.804 o
85.0991 196.882 o
grestore
gsave
149.4 224.8 48.51 45.9 clipbox
/o {
gsave
newpath
translate
1.0 setlinewidth
0 setlinejoin
0 setlinecap
0 3 m
-3 -3 l
3 -3 l
cl
gsave
0.855 0.647 0.125 setrgbcolor
fill
grestore
stroke
grestore
} bind def
91.1631 163.975 o
95.6698 154.277 o
95.6893 154.37 o
104.249 141.13 o
grestore
1 setlinejoin
gsave
149.4 224.8 48.51 45.9 clipbox
/o {
gsave
newpath
translate
1.0 setlinewidth
1 setlinejoin
0 setlinecap
0 -3 m
0.795609 -3 1.55874 -2.6839 2.12132 -2.12132 c
2.6839 -1.55874 3 -0.795609 3 0 c
3 0.795609 2.6839 1.55874 2.12132 2.12132 c
1.55874 2.6839 0.795609 3 0 3 c
-0.795609 3 -1.55874 2.6839 -2.12132 2.12132 c
-2.6839 1.55874 -3 0.795609 -3 0 c
-3 -0.795609 -2.6839 -1.55874 -2.12132 -2.12132 c
-1.55874 -2.6839 -0.795609 -3 0 -3 c
cl
gsave
0.855 0.647 0.125 setrgbcolor
fill
grestore
stroke
grestore
} bind def
94.7729 210.622 o
98.2583 194.11 o
98.6955 195.634 o
106.548 173.566 o
grestore
0 setlinejoin
gsave
149.4 224.8 48.51 45.9 clipbox
/o {
gsave
newpath
translate
1.0 setlinewidth
0 setlinejoin
0 setlinecap
-3.67394e-16 -3 m
3 3 l
-3 3 l
cl
gsave
0.855 0.647 0.125 setrgbcolor
fill
grestore
stroke
grestore
} bind def
109.72 149.618 o
113.96 142.632 o
114.432 141.816 o
122.977 129.667 o
grestore
gsave
149.4 224.8 48.51 45.9 clipbox
/o {
gsave
newpath
translate
1.0 setlinewidth
0 setlinejoin
0 setlinecap
-3 -3 m
3 -3 l
3 3 l
-3 3 l
cl
gsave
0.855 0.647 0.125 setrgbcolor
fill
grestore
stroke
grestore
} bind def
127.857 136.434 o
133.58 124.147 o
134.36 125.091 o
142.564 110.664 o
grestore
gsave
149.4 224.8 48.51 45.9 clipbox
/o {
gsave
newpath
translate
1.0 setlinewidth
0 setlinejoin
0 setlinecap
1.83697e-16 3 m
-2.85317 0.927051 l
-1.76336 -2.42705 l
1.76336 -2.42705 l
2.85317 0.927051 l
cl
gsave
0.663 setgray
fill
grestore
stroke
grestore
} bind def
100.607 154.107 o
105.495 139.682 o
105.669 141.395 o
113.326 123.632 o
grestore
gsave
149.4 224.8 48.51 45.9 clipbox
/o {
gsave
newpath
translate
1.0 setlinewidth
0 setlinejoin
0 setlinecap
-1.9984e-16 -4.24264 m
2.54558 0 l
2.44249e-16 4.24264 l
-2.54558 8.88178e-16 l
cl
gsave
0.663 setgray
fill
grestore
stroke
grestore
} bind def
106.301 152.216 o
111.245 138.7 o
111.291 140.129 o
118.772 124.105 o
grestore
gsave
149.4 224.8 48.51 45.9 clipbox
/o {
gsave
newpath
translate
1.0 setlinewidth
0 setlinejoin
0 setlinecap
0 3 m
-3 -3 l
3 -3 l
cl
gsave
0.663 setgray
fill
grestore
stroke
grestore
} bind def
123.45 114.883 o
129 108.335 o
128.606 108.705 o
136.836 100.584 o
grestore
1 setlinejoin
gsave
149.4 224.8 48.51 45.9 clipbox
/o {
gsave
newpath
translate
1.0 setlinewidth
1 setlinejoin
0 setlinecap
0 -3 m
0.795609 -3 1.55874 -2.6839 2.12132 -2.12132 c
2.6839 -1.55874 3 -0.795609 3 0 c
3 0.795609 2.6839 1.55874 2.12132 2.12132 c
1.55874 2.6839 0.795609 3 0 3 c
-0.795609 3 -1.55874 2.6839 -2.12132 2.12132 c
-2.6839 1.55874 -3 0.795609 -3 0 c
-3 -0.795609 -2.6839 -1.55874 -2.12132 -2.12132 c
-1.55874 -2.6839 -0.795609 -3 0 -3 c
cl
gsave
0.663 setgray
fill
grestore
stroke
grestore
} bind def
128.936 130.123 o
134.636 115.637 o
134.313 118.62 o
142.547 103.963 o
grestore
0 setlinejoin
gsave
149.4 224.8 48.51 45.9 clipbox
/o {
gsave
newpath
translate
1.0 setlinewidth
0 setlinejoin
0 setlinecap
-3.67394e-16 -3 m
3 3 l
-3 3 l
cl
gsave
0.663 setgray
fill
grestore
stroke
grestore
} bind def
141.018 107.573 o
146.931 97.7371 o
146.552 98.9948 o
155.412 88.3182 o
grestore
gsave
149.4 224.8 48.51 45.9 clipbox
/o {
gsave
newpath
translate
1.0 setlinewidth
0 setlinejoin
0 setlinecap
-3 -3 m
3 -3 l
3 3 l
-3 3 l
cl
gsave
0.663 setgray
fill
grestore
stroke
grestore
} bind def
163.313 93.9882 o
169.665 85.6435 o
169.346 86.3779 o
178.107 77.8985 o
grestore
0.500 setlinewidth
1 setlinejoin
gsave
/o {
gsave
newpath
translate
0.5 setlinewidth
1 setlinejoin
0 setlinecap
0 0 m
0 4 l
gsave
0.000 setgray
fill
grestore
stroke
grestore
} bind def
48.51 45.902 o
grestore
gsave
/o {
gsave
newpath
translate
0.5 setlinewidth
1 setlinejoin
0 setlinecap
0 0 m
0 -4 l
gsave
0.000 setgray
fill
grestore
stroke
grestore
} bind def
48.51 270.72 o
grestore
/BitstreamVeraSans-Roman findfont
9.000 scalefont
setfont
gsave
43.502188 35.058219 translate
0.000000 rotate
0.000000 0.000000 m /two glyphshow
5.726074 0.000000 m /five glyphshow
grestore
gsave
/o {
gsave
newpath
translate
0.5 setlinewidth
1 setlinejoin
0 setlinecap
0 0 m
0 4 l
gsave
0.000 setgray
fill
grestore
stroke
grestore
} bind def
85.8713 45.902 o
grestore
gsave
/o {
gsave
newpath
translate
0.5 setlinewidth
1 setlinejoin
0 setlinecap
0 0 m
0 -4 l
gsave
0.000 setgray
fill
grestore
stroke
grestore
} bind def
85.8713 270.72 o
grestore
gsave
80.785313 35.058219 translate
0.000000 rotate
0.000000 0.000000 m /three glyphshow
5.726074 0.000000 m /zero glyphshow
grestore
gsave
/o {
gsave
newpath
translate
0.5 setlinewidth
1 setlinejoin
0 setlinecap
0 0 m
0 4 l
gsave
0.000 setgray
fill
grestore
stroke
grestore
} bind def
123.233 45.902 o
grestore
gsave
/o {
gsave
newpath
translate
0.5 setlinewidth
1 setlinejoin
0 setlinecap
0 0 m
0 -4 l
gsave
0.000 setgray
fill
grestore
stroke
grestore
} bind def
123.233 270.72 o
grestore
gsave
118.240313 35.058219 translate
0.000000 rotate
0.000000 0.000000 m /three glyphshow
5.726074 0.000000 m /five glyphshow
grestore
gsave
/o {
gsave
newpath
translate
0.5 setlinewidth
1 setlinejoin
0 setlinecap
0 0 m
0 4 l
gsave
0.000 setgray
fill
grestore
stroke
grestore
} bind def
160.594 45.902 o
grestore
gsave
/o {
gsave
newpath
translate
0.5 setlinewidth
1 setlinejoin
0 setlinecap
0 0 m
0 -4 l
gsave
0.000 setgray
fill
grestore
stroke
grestore
} bind def
160.594 270.72 o
grestore
gsave
155.382812 35.058219 translate
0.000000 rotate
0.000000 0.000000 m /four glyphshow
5.726074 0.000000 m /zero glyphshow
grestore
gsave
/o {
gsave
newpath
translate
0.5 setlinewidth
1 setlinejoin
0 setlinecap
0 0 m
0 4 l
gsave
0.000 setgray
fill
grestore
stroke
grestore
} bind def
197.955 45.902 o
grestore
gsave
/o {
gsave
newpath
translate
0.5 setlinewidth
1 setlinejoin
0 setlinecap
0 0 m
0 -4 l
gsave
0.000 setgray
fill
grestore
stroke
grestore
} bind def
197.955 270.72 o
grestore
gsave
192.837812 35.058219 translate
0.000000 rotate
0.000000 0.000000 m /four glyphshow
5.726074 0.000000 m /five glyphshow
grestore
gsave
77.732500 16.464469 translate
0.000000 rotate
/BitstreamVeraSans-Roman findfont
11.0 scalefont
setfont
0.000000 0.098219 moveto
/V glyphshow

7.524902 0.098219 moveto
/o glyphshow

14.254883 0.098219 moveto
/l glyphshow

17.311035 0.098219 moveto
/u glyphshow

24.282715 0.098219 moveto
/m glyphshow

34.998047 0.098219 moveto
/e glyphshow

41.765625 0.098219 moveto
/space glyphshow

45.262207 0.098219 moveto
/parenleft glyphshow

/STIXGeneral-Regular findfont
11.0 scalefont
setfont
49.553711 0.098219 moveto
/uni212B glyphshow

/Cmr10 findfont
7.7 scalefont
setfont
57.495712 6.870313 moveto
/three glyphshow

/BitstreamVeraSans-Roman findfont
11.0 scalefont
setfont
64.866400 0.098219 moveto
/slash glyphshow

68.572454 0.098219 moveto
/f glyphshow

72.445013 0.098219 moveto
/period glyphshow

75.941595 0.098219 moveto
/u glyphshow

82.913275 0.098219 moveto
/period glyphshow

86.409857 0.098219 moveto
/parenright glyphshow


grestore
gsave
/o {
gsave
newpath
translate
0.5 setlinewidth
1 setlinejoin
0 setlinecap
0 0 m
4 0 l
gsave
0.000 setgray
fill
grestore
stroke
grestore
} bind def
48.51 45.902 o
grestore
gsave
/o {
gsave
newpath
translate
0.5 setlinewidth
1 setlinejoin
0 setlinecap
0 0 m
-4 0 l
gsave
0.000 setgray
fill
grestore
stroke
grestore
} bind def
197.955 45.902 o
grestore
gsave
28.900625 43.417594 translate
0.000000 rotate
0.000000 0.000000 m /one glyphshow
5.726074 0.000000 m /zero glyphshow
11.452148 0.000000 m /zero glyphshow
grestore
gsave
/o {
gsave
newpath
translate
0.5 setlinewidth
1 setlinejoin
0 setlinecap
0 0 m
4 0 l
gsave
0.000 setgray
fill
grestore
stroke
grestore
} bind def
48.51 83.3716 o
grestore
gsave
/o {
gsave
newpath
translate
0.5 setlinewidth
1 setlinejoin
0 setlinecap
0 0 m
-4 0 l
gsave
0.000 setgray
fill
grestore
stroke
grestore
} bind def
197.955 83.3716 o
grestore
gsave
28.900625 80.887266 translate
0.000000 rotate
0.000000 0.000000 m /one glyphshow
5.726074 0.000000 m /five glyphshow
11.452148 0.000000 m /zero glyphshow
grestore
gsave
/o {
gsave
newpath
translate
0.5 setlinewidth
1 setlinejoin
0 setlinecap
0 0 m
4 0 l
gsave
0.000 setgray
fill
grestore
stroke
grestore
} bind def
48.51 120.841 o
grestore
gsave
/o {
gsave
newpath
translate
0.5 setlinewidth
1 setlinejoin
0 setlinecap
0 0 m
-4 0 l
gsave
0.000 setgray
fill
grestore
stroke
grestore
} bind def
197.955 120.841 o
grestore
gsave
28.572500 118.356937 translate
0.000000 rotate
0.000000 0.000000 m /two glyphshow
5.726074 0.000000 m /zero glyphshow
11.452148 0.000000 m /zero glyphshow
grestore
gsave
/o {
gsave
newpath
translate
0.5 setlinewidth
1 setlinejoin
0 setlinecap
0 0 m
4 0 l
gsave
0.000 setgray
fill
grestore
stroke
grestore
} bind def
48.51 158.311 o
grestore
gsave
/o {
gsave
newpath
translate
0.5 setlinewidth
1 setlinejoin
0 setlinecap
0 0 m
-4 0 l
gsave
0.000 setgray
fill
grestore
stroke
grestore
} bind def
197.955 158.311 o
grestore
gsave
28.572500 155.826609 translate
0.000000 rotate
0.000000 0.000000 m /two glyphshow
5.726074 0.000000 m /five glyphshow
11.452148 0.000000 m /zero glyphshow
grestore
gsave
/o {
gsave
newpath
translate
0.5 setlinewidth
1 setlinejoin
0 setlinecap
0 0 m
4 0 l
gsave
0.000 setgray
fill
grestore
stroke
grestore
} bind def
48.51 195.781 o
grestore
gsave
/o {
gsave
newpath
translate
0.5 setlinewidth
1 setlinejoin
0 setlinecap
0 0 m
-4 0 l
gsave
0.000 setgray
fill
grestore
stroke
grestore
} bind def
197.955 195.781 o
grestore
gsave
28.603750 193.296281 translate
0.000000 rotate
0.000000 0.000000 m /three glyphshow
5.726074 0.000000 m /zero glyphshow
11.452148 0.000000 m /zero glyphshow
grestore
gsave
/o {
gsave
newpath
translate
0.5 setlinewidth
1 setlinejoin
0 setlinecap
0 0 m
4 0 l
gsave
0.000 setgray
fill
grestore
stroke
grestore
} bind def
48.51 233.25 o
grestore
gsave
/o {
gsave
newpath
translate
0.5 setlinewidth
1 setlinejoin
0 setlinecap
0 0 m
-4 0 l
gsave
0.000 setgray
fill
grestore
stroke
grestore
} bind def
197.955 233.25 o
grestore
gsave
28.603750 230.765953 translate
0.000000 rotate
0.000000 0.000000 m /three glyphshow
5.726074 0.000000 m /five glyphshow
11.452148 0.000000 m /zero glyphshow
grestore
gsave
/o {
gsave
newpath
translate
0.5 setlinewidth
1 setlinejoin
0 setlinecap
0 0 m
4 0 l
gsave
0.000 setgray
fill
grestore
stroke
grestore
} bind def
48.51 270.72 o
grestore
gsave
/o {
gsave
newpath
translate
0.5 setlinewidth
1 setlinejoin
0 setlinecap
0 0 m
-4 0 l
gsave
0.000 setgray
fill
grestore
stroke
grestore
} bind def
197.955 270.72 o
grestore
gsave
28.353750 268.235625 translate
0.000000 rotate
0.000000 0.000000 m /four glyphshow
5.726074 0.000000 m /zero glyphshow
11.452148 0.000000 m /zero glyphshow
grestore
/BitstreamVeraSans-Roman findfont
11.000 scalefont
setfont
gsave
21.072500 105.342234 translate
90.000000 rotate
0.000000 0.000000 m /B glyphshow
7.546387 0.000000 m /u glyphshow
14.518066 0.000000 m /l glyphshow
17.574219 0.000000 m /k glyphshow
23.944336 0.000000 m /space glyphshow
27.440918 0.000000 m /M glyphshow
36.931641 0.000000 m /o glyphshow
43.661621 0.000000 m /d glyphshow
50.644043 0.000000 m /u glyphshow
57.615723 0.000000 m /l glyphshow
60.671875 0.000000 m /u glyphshow
67.643555 0.000000 m /s glyphshow
73.374512 0.000000 m /space glyphshow
76.871094 0.000000 m /parenleft glyphshow
81.162598 0.000000 m /G glyphshow
89.686523 0.000000 m /P glyphshow
95.819824 0.000000 m /a glyphshow
102.560547 0.000000 m /parenright glyphshow
grestore
1.000 setlinewidth
gsave
48.51 270.72 m
197.955 270.72 l
stroke
grestore
gsave
197.955 45.902 m
197.955 270.72 l
stroke
grestore
gsave
48.51 45.902 m
197.955 45.902 l
stroke
grestore
gsave
48.51 45.902 m
48.51 270.72 l
stroke
grestore
gsave
116.573 223.22 m
148.573 223.22 l
148.573 268.22 l
116.573 268.22 l
116.573 223.22 l
cl
gsave
1.000 setgray
fill
grestore
stroke
grestore
0 setlinejoin
gsave
/o {
gsave
newpath
translate
1.0 setlinewidth
0 setlinejoin
0 setlinecap
-2.25 -2.25 m
2.25 -2.25 l
2.25 2.25 l
-2.25 2.25 l
cl
gsave
0.000 0.000 1.000 setrgbcolor
fill
grestore
stroke
grestore
} bind def
124.073 263.47 o
grestore
gsave
133.072812 261.720000 translate
0.000000 rotate
/BitstreamVeraSans-Roman findfont
5.0 scalefont
setfont
0.000000 0.203125 moveto
/T glyphshow

3.054199 0.203125 moveto
/i glyphshow

4.443359 0.203125 moveto
/O glyphshow

/Cmr10 findfont
3.5 scalefont
setfont
8.378906 -1.072344 moveto
/two glyphshow


grestore
gsave
/o {
gsave
newpath
translate
1.0 setlinewidth
0 setlinejoin
0 setlinecap
-2.25 -2.25 m
2.25 -2.25 l
2.25 2.25 l
-2.25 2.25 l
cl
gsave
1.000 0.000 0.000 setrgbcolor
fill
grestore
stroke
grestore
} bind def
124.073 254.97 o
grestore
gsave
133.072812 253.220000 translate
0.000000 rotate
/BitstreamVeraSans-Roman findfont
5.0 scalefont
setfont
0.000000 0.281250 moveto
/V glyphshow

3.420410 0.281250 moveto
/O glyphshow

/Cmr10 findfont
3.5 scalefont
setfont
7.355957 -0.994219 moveto
/two glyphshow


grestore
gsave
/o {
gsave
newpath
translate
1.0 setlinewidth
0 setlinejoin
0 setlinecap
-2.25 -2.25 m
2.25 -2.25 l
2.25 2.25 l
-2.25 2.25 l
cl
gsave
0.000 0.502 0.000 setrgbcolor
fill
grestore
stroke
grestore
} bind def
124.073 246.47 o
grestore
gsave
133.072812 244.720000 translate
0.000000 rotate
/BitstreamVeraSans-Roman findfont
5.0 scalefont
setfont
0.000000 0.281250 moveto
/R glyphshow

3.474121 0.281250 moveto
/u glyphshow

6.643066 0.281250 moveto
/O glyphshow

/Cmr10 findfont
3.5 scalefont
setfont
10.578613 -0.994219 moveto
/two glyphshow


grestore
gsave
/o {
gsave
newpath
translate
1.0 setlinewidth
0 setlinejoin
0 setlinecap
-2.25 -2.25 m
2.25 -2.25 l
2.25 2.25 l
-2.25 2.25 l
cl
gsave
0.855 0.647 0.125 setrgbcolor
fill
grestore
stroke
grestore
} bind def
124.073 237.97 o
grestore
gsave
133.072812 236.220000 translate
0.000000 rotate
/BitstreamVeraSans-Roman findfont
5.0 scalefont
setfont
0.000000 0.281250 moveto
/I glyphshow

1.474609 0.281250 moveto
/r glyphshow

3.530273 0.281250 moveto
/O glyphshow

/Cmr10 findfont
3.5 scalefont
setfont
7.465820 -0.994219 moveto
/two glyphshow


grestore
gsave
/o {
gsave
newpath
translate
1.0 setlinewidth
0 setlinejoin
0 setlinecap
-2.25 -2.25 m
2.25 -2.25 l
2.25 2.25 l
-2.25 2.25 l
cl
gsave
0.663 setgray
fill
grestore
stroke
grestore
} bind def
124.073 229.47 o
grestore
gsave
133.072812 227.720000 translate
0.000000 rotate
/BitstreamVeraSans-Roman findfont
5.0 scalefont
setfont
0.000000 0.281250 moveto
/S glyphshow

3.173828 0.281250 moveto
/n glyphshow

6.342773 0.281250 moveto
/O glyphshow

/Cmr10 findfont
3.5 scalefont
setfont
10.278320 -0.994219 moveto
/two glyphshow


grestore
1 setlinejoin
gsave
152.392 222.657 m
195.455 222.657 l
195.455 268.22 l
152.392 268.22 l
152.392 222.657 l
cl
gsave
1.000 setgray
fill
grestore
stroke
grestore
0 setlinejoin
gsave
/o {
gsave
newpath
translate
1.0 setlinewidth
0 setlinejoin
0 setlinecap
1.10218e-16 1.8 m
-1.7119 0.556231 l
-1.05801 -1.45623 l
1.05801 -1.45623 l
1.7119 0.556231 l
cl
gsave
1.000 setgray
fill
grestore
stroke
grestore
} bind def
159.392 264.173 o
grestore
/BitstreamVeraSans-Roman findfont
5.000 scalefont
setfont
gsave
168.392500 262.423125 translate
0.000000 rotate
0.000000 0.000000 m /F glyphshow
2.875977 0.000000 m /l glyphshow
4.265137 0.000000 m /u glyphshow
7.434082 0.000000 m /o glyphshow
10.493164 0.000000 m /r glyphshow
12.548828 0.000000 m /i glyphshow
13.937988 0.000000 m /t glyphshow
15.898438 0.000000 m /e glyphshow
grestore
gsave
/o {
gsave
newpath
translate
1.0 setlinewidth
0 setlinejoin
0 setlinecap
-1.19904e-16 -2.54558 m
1.52735 0 l
-1.19904e-16 2.54558 l
-1.52735 4.44089e-16 l
cl
gsave
1.000 setgray
fill
grestore
stroke
grestore
} bind def
159.392 256.829 o
grestore
gsave
168.392500 255.079375 translate
0.000000 rotate
0.000000 0.000000 m /P glyphshow
3.015137 0.000000 m /y glyphshow
5.974121 0.000000 m /r glyphshow
8.029785 0.000000 m /i glyphshow
9.418945 0.000000 m /t glyphshow
11.379395 0.000000 m /e glyphshow
grestore
gsave
/o {
gsave
newpath
translate
1.0 setlinewidth
0 setlinejoin
0 setlinecap
0 1.8 m
-1.8 -1.8 l
1.8 -1.8 l
cl
gsave
1.000 setgray
fill
grestore
stroke
grestore
} bind def
159.392 249.486 o
grestore
gsave
168.392500 247.735625 translate
0.000000 rotate
0.000000 0.000000 m /C glyphshow
3.491211 0.000000 m /o glyphshow
6.550293 0.000000 m /l glyphshow
7.939453 0.000000 m /u glyphshow
11.108398 0.000000 m /m glyphshow
15.979004 0.000000 m /b glyphshow
19.152832 0.000000 m /i glyphshow
20.541992 0.000000 m /t glyphshow
22.502441 0.000000 m /e glyphshow
grestore
1 setlinejoin
gsave
/o {
gsave
newpath
translate
1.0 setlinewidth
1 setlinejoin
0 setlinecap
0 -1.8 m
0.477366 -1.8 0.935244 -1.61034 1.27279 -1.27279 c
1.61034 -0.935244 1.8 -0.477366 1.8 0 c
1.8 0.477366 1.61034 0.935244 1.27279 1.27279 c
0.935244 1.61034 0.477366 1.8 0 1.8 c
-0.477366 1.8 -0.935244 1.61034 -1.27279 1.27279 c
-1.61034 0.935244 -1.8 0.477366 -1.8 0 c
-1.8 -0.477366 -1.61034 -0.935244 -1.27279 -1.27279 c
-0.935244 -1.61034 -0.477366 -1.8 0 -1.8 c
cl
gsave
1.000 setgray
fill
grestore
stroke
grestore
} bind def
159.392 242.142 o
grestore
gsave
168.392500 240.391875 translate
0.000000 rotate
0.000000 0.000000 m /R glyphshow
3.224121 0.000000 m /u glyphshow
6.393066 0.000000 m /t glyphshow
8.353516 0.000000 m /i glyphshow
9.742676 0.000000 m /l glyphshow
11.131836 0.000000 m /e glyphshow
grestore
0 setlinejoin
gsave
/o {
gsave
newpath
translate
1.0 setlinewidth
0 setlinejoin
0 setlinecap
-2.20436e-16 -1.8 m
1.8 1.8 l
-1.8 1.8 l
cl
gsave
1.000 setgray
fill
grestore
stroke
grestore
} bind def
159.392 234.798 o
grestore
gsave
168.392500 233.048125 translate
0.000000 rotate
0.000000 0.000000 m /B glyphshow
3.430176 0.000000 m /r glyphshow
5.360840 0.000000 m /o glyphshow
8.419922 0.000000 m /o glyphshow
11.479004 0.000000 m /k glyphshow
14.374512 0.000000 m /i glyphshow
15.763672 0.000000 m /t glyphshow
17.724121 0.000000 m /e glyphshow
grestore
gsave
/o {
gsave
newpath
translate
1.0 setlinewidth
0 setlinejoin
0 setlinecap
-1.8 -1.8 m
1.8 -1.8 l
1.8 1.8 l
-1.8 1.8 l
cl
gsave
1.000 setgray
fill
grestore
stroke
grestore
} bind def
159.392 227.454 o
grestore
gsave
168.392500 225.704375 translate
0.000000 rotate
0.000000 0.000000 m /A glyphshow
3.420410 0.000000 m /n glyphshow
6.589355 0.000000 m /a glyphshow
9.653320 0.000000 m /t glyphshow
11.613770 0.000000 m /a glyphshow
14.677734 0.000000 m /s glyphshow
17.282715 0.000000 m /e glyphshow
grestore

end
showpage
