%!PS-Adobe-3.0 EPSF-3.0
%%Title: images/IrO2-relative-xc-polymorphs.eps
%%Creator: matplotlib version 1.3.0, http://matplotlib.org/
%%CreationDate: Sat Nov 30 09:10:53 2013
%%Orientation: portrait
%%BoundingBox: 198 252 414 540
%%EndComments
%%BeginProlog
/mpldict 11 dict def
mpldict begin
/m { moveto } bind def
/l { lineto } bind def
/r { rlineto } bind def
/c { curveto } bind def
/cl { closepath } bind def
/box {
m
1 index 0 r
0 exch r
neg 0 r
cl
} bind def
/clipbox {
box
clip
newpath
} bind def
%!PS-Adobe-3.0 Resource-Font
%%Title: Bitstream Vera Sans
%%Copyright: Copyright (c) 2003 by Bitstream, Inc. All Rights Reserved.
%%Creator: Converted from TrueType to type 3 by PPR
25 dict begin
/_d{bind def}bind def
/_m{moveto}_d
/_l{lineto}_d
/_cl{closepath eofill}_d
/_c{curveto}_d
/_sc{7 -1 roll{setcachedevice}{pop pop pop pop pop pop}ifelse}_d
/_e{exec}_d
/FontName /BitstreamVeraSans-Roman def
/PaintType 0 def
/FontMatrix[.001 0 0 .001 0 0]def
/FontBBox[-183 -236 1287 928]def
/FontType 3 def
/Encoding [ /space /parenleft /parenright /period /slash /zero /two /three /four /five /six /eight /A /B /D /E /J /L /M /P /R /V /a /e /f /g /i /k /l /m /n /o /r /s /t /u /v /y /minus ] def
/FontInfo 10 dict dup begin
/FamilyName (Bitstream Vera Sans) def
/FullName (Bitstream Vera Sans) def
/Notice (Copyright (c) 2003 by Bitstream, Inc. All Rights Reserved. Bitstream Vera is a trademark of Bitstream, Inc.) def
/Weight (Roman) def
/Version (Release 1.10) def
/ItalicAngle 0.0 def
/isFixedPitch false def
/UnderlinePosition -213 def
/UnderlineThickness 143 def
end readonly def
/CharStrings 39 dict dup begin
/space{318 0 0 0 0 0 _sc
}_d
/parenleft{390 0 86 -131 310 759 _sc
310 759 _m
266 683 234 609 213 536 _c
191 463 181 389 181 314 _c
181 238 191 164 213 91 _c
234 17 266 -56 310 -131 _c
232 -131 _l
183 -54 146 20 122 94 _c
98 168 86 241 86 314 _c
86 386 98 459 122 533 _c
146 607 182 682 232 759 _c
310 759 _l
_cl}_d
/parenright{390 0 80 -131 304 759 _sc
80 759 _m
158 759 _l
206 682 243 607 267 533 _c
291 459 304 386 304 314 _c
304 241 291 168 267 94 _c
243 20 206 -54 158 -131 _c
80 -131 _l
123 -56 155 17 177 91 _c
198 164 209 238 209 314 _c
209 389 198 463 177 536 _c
155 609 123 683 80 759 _c
_cl}_d
/period{318 0 107 0 210 124 _sc
107 124 _m
210 124 _l
210 0 _l
107 0 _l
107 124 _l
_cl}_d
/slash{337 0 0 -92 337 729 _sc
254 729 _m
337 729 _l
83 -92 _l
0 -92 _l
254 729 _l
_cl}_d
/zero{636 0 66 -13 570 742 _sc
318 664 _m
267 664 229 639 203 589 _c
177 539 165 464 165 364 _c
165 264 177 189 203 139 _c
229 89 267 64 318 64 _c
369 64 407 89 433 139 _c
458 189 471 264 471 364 _c
471 464 458 539 433 589 _c
407 639 369 664 318 664 _c
318 742 _m
399 742 461 709 505 645 _c
548 580 570 486 570 364 _c
570 241 548 147 505 83 _c
461 19 399 -13 318 -13 _c
236 -13 173 19 130 83 _c
87 147 66 241 66 364 _c
66 486 87 580 130 645 _c
173 709 236 742 318 742 _c
_cl}_d
/two{{636 0 73 0 536 742 _sc
192 83 _m
536 83 _l
536 0 _l
73 0 _l
73 83 _l
110 121 161 173 226 239 _c
290 304 331 346 348 365 _c
380 400 402 430 414 455 _c
426 479 433 504 433 528 _c
433 566 419 598 392 622 _c
365 646 330 659 286 659 _c
255 659 222 653 188 643 _c
154 632 117 616 78 594 _c
78 694 _l
118 710 155 722 189 730 _c
223 738 255 742 284 742 _c
}_e{359 742 419 723 464 685 _c
509 647 532 597 532 534 _c
532 504 526 475 515 449 _c
504 422 484 390 454 354 _c
446 344 420 317 376 272 _c
332 227 271 164 192 83 _c
_cl}_e}_d
/three{{636 0 76 -13 556 742 _sc
406 393 _m
453 383 490 362 516 330 _c
542 298 556 258 556 212 _c
556 140 531 84 482 45 _c
432 6 362 -13 271 -13 _c
240 -13 208 -10 176 -4 _c
144 1 110 10 76 22 _c
76 117 _l
103 101 133 89 166 81 _c
198 73 232 69 268 69 _c
330 69 377 81 409 105 _c
441 129 458 165 458 212 _c
458 254 443 288 413 312 _c
383 336 341 349 287 349 _c
}_e{202 349 _l
202 430 _l
291 430 _l
339 430 376 439 402 459 _c
428 478 441 506 441 543 _c
441 580 427 609 401 629 _c
374 649 336 659 287 659 _c
260 659 231 656 200 650 _c
169 644 135 635 98 623 _c
98 711 _l
135 721 170 729 203 734 _c
235 739 266 742 296 742 _c
370 742 429 725 473 691 _c
517 657 539 611 539 553 _c
539 513 527 479 504 451 _c
481 423 448 403 406 393 _c
_cl}_e}_d
/four{636 0 49 0 580 729 _sc
378 643 _m
129 254 _l
378 254 _l
378 643 _l
352 729 _m
476 729 _l
476 254 _l
580 254 _l
580 172 _l
476 172 _l
476 0 _l
378 0 _l
378 172 _l
49 172 _l
49 267 _l
352 729 _l
_cl}_d
/five{{636 0 77 -13 549 729 _sc
108 729 _m
495 729 _l
495 646 _l
198 646 _l
198 467 _l
212 472 227 476 241 478 _c
255 480 270 482 284 482 _c
365 482 429 459 477 415 _c
525 370 549 310 549 234 _c
549 155 524 94 475 51 _c
426 8 357 -13 269 -13 _c
238 -13 207 -10 175 -6 _c
143 -1 111 6 77 17 _c
77 116 _l
106 100 136 88 168 80 _c
199 72 232 69 267 69 _c
}_e{323 69 368 83 401 113 _c
433 143 450 183 450 234 _c
450 284 433 324 401 354 _c
368 384 323 399 267 399 _c
241 399 214 396 188 390 _c
162 384 135 375 108 363 _c
108 729 _l
_cl}_e}_d
/six{{636 0 70 -13 573 742 _sc
330 404 _m
286 404 251 388 225 358 _c
199 328 186 286 186 234 _c
186 181 199 139 225 109 _c
251 79 286 64 330 64 _c
374 64 409 79 435 109 _c
461 139 474 181 474 234 _c
474 286 461 328 435 358 _c
409 388 374 404 330 404 _c
526 713 _m
526 623 _l
501 635 476 644 451 650 _c
425 656 400 659 376 659 _c
310 659 260 637 226 593 _c
}_e{192 549 172 482 168 394 _c
187 422 211 444 240 459 _c
269 474 301 482 336 482 _c
409 482 467 459 509 415 _c
551 371 573 310 573 234 _c
573 159 550 99 506 54 _c
462 9 403 -13 330 -13 _c
246 -13 181 19 137 83 _c
92 147 70 241 70 364 _c
70 479 97 571 152 639 _c
206 707 280 742 372 742 _c
396 742 421 739 447 735 _c
472 730 498 723 526 713 _c
_cl}_e}_d
/eight{{636 0 68 -13 568 742 _sc
318 346 _m
271 346 234 333 207 308 _c
180 283 167 249 167 205 _c
167 161 180 126 207 101 _c
234 76 271 64 318 64 _c
364 64 401 76 428 102 _c
455 127 469 161 469 205 _c
469 249 455 283 429 308 _c
402 333 365 346 318 346 _c
219 388 _m
177 398 144 418 120 447 _c
96 476 85 511 85 553 _c
85 611 105 657 147 691 _c
188 725 245 742 318 742 _c
}_e{390 742 447 725 489 691 _c
530 657 551 611 551 553 _c
551 511 539 476 515 447 _c
491 418 459 398 417 388 _c
464 377 501 355 528 323 _c
554 291 568 251 568 205 _c
568 134 546 80 503 43 _c
459 5 398 -13 318 -13 _c
237 -13 175 5 132 43 _c
89 80 68 134 68 205 _c
68 251 81 291 108 323 _c
134 355 171 377 219 388 _c
183 544 _m
183 506 194 476 218 455 _c
}_e{242 434 275 424 318 424 _c
360 424 393 434 417 455 _c
441 476 453 506 453 544 _c
453 582 441 611 417 632 _c
393 653 360 664 318 664 _c
275 664 242 653 218 632 _c
194 611 183 582 183 544 _c
_cl}_e}_d
/A{684 0 8 0 676 729 _sc
342 632 _m
208 269 _l
476 269 _l
342 632 _l
286 729 _m
398 729 _l
676 0 _l
573 0 _l
507 187 _l
178 187 _l
112 0 _l
8 0 _l
286 729 _l
_cl}_d
/B{{686 0 98 0 615 729 _sc
197 348 _m
197 81 _l
355 81 _l
408 81 447 92 473 114 _c
498 136 511 169 511 215 _c
511 260 498 293 473 315 _c
447 337 408 348 355 348 _c
197 348 _l
197 648 _m
197 428 _l
343 428 _l
391 428 426 437 450 455 _c
474 473 486 500 486 538 _c
486 574 474 602 450 620 _c
426 638 391 648 343 648 _c
197 648 _l
98 729 _m
350 729 _l
}_e{425 729 483 713 524 682 _c
564 650 585 606 585 549 _c
585 504 574 468 553 442 _c
532 416 502 399 462 393 _c
510 382 548 360 575 327 _c
601 294 615 253 615 204 _c
615 138 592 88 548 53 _c
504 17 441 0 360 0 _c
98 0 _l
98 729 _l
_cl}_e}_d
/D{770 0 98 0 711 729 _sc
197 648 _m
197 81 _l
316 81 _l
416 81 490 103 537 149 _c
583 195 607 267 607 365 _c
607 463 583 534 537 580 _c
490 625 416 648 316 648 _c
197 648 _l
98 729 _m
301 729 _l
442 729 546 699 612 641 _c
678 582 711 490 711 365 _c
711 239 677 147 611 88 _c
545 29 441 0 301 0 _c
98 0 _l
98 729 _l
_cl}_d
/E{632 0 98 0 568 729 _sc
98 729 _m
559 729 _l
559 646 _l
197 646 _l
197 430 _l
544 430 _l
544 347 _l
197 347 _l
197 83 _l
568 83 _l
568 0 _l
98 0 _l
98 729 _l
_cl}_d
/J{295 0 -51 -199 197 729 _sc
98 729 _m
197 729 _l
197 51 _l
197 -36 180 -99 147 -139 _c
113 -179 60 -199 -13 -199 _c
-51 -199 _l
-51 -116 _l
-20 -116 _l
22 -116 53 -103 71 -79 _c
89 -55 98 -11 98 51 _c
98 729 _l
_cl}_d
/L{557 0 98 0 552 729 _sc
98 729 _m
197 729 _l
197 83 _l
552 83 _l
552 0 _l
98 0 _l
98 729 _l
_cl}_d
/M{863 0 98 0 765 729 _sc
98 729 _m
245 729 _l
431 233 _l
618 729 _l
765 729 _l
765 0 _l
669 0 _l
669 640 _l
481 140 _l
382 140 _l
194 640 _l
194 0 _l
98 0 _l
98 729 _l
_cl}_d
/P{603 0 98 0 569 729 _sc
197 648 _m
197 374 _l
321 374 _l
367 374 402 385 427 409 _c
452 433 465 467 465 511 _c
465 555 452 588 427 612 _c
402 636 367 648 321 648 _c
197 648 _l
98 729 _m
321 729 _l
402 729 464 710 506 673 _c
548 636 569 582 569 511 _c
569 439 548 384 506 348 _c
464 311 402 293 321 293 _c
197 293 _l
197 0 _l
98 0 _l
98 729 _l
_cl}_d
/R{{695 0 98 0 666 729 _sc
444 342 _m
465 334 486 319 506 296 _c
526 272 546 240 566 199 _c
666 0 _l
560 0 _l
467 187 _l
443 235 419 268 397 284 _c
374 300 343 308 304 308 _c
197 308 _l
197 0 _l
98 0 _l
98 729 _l
321 729 _l
404 729 466 711 507 677 _c
548 642 569 589 569 519 _c
569 473 558 434 537 404 _c
515 374 484 353 444 342 _c
197 648 _m
197 389 _l
321 389 _l
}_e{368 389 404 400 428 422 _c
452 444 465 476 465 519 _c
465 561 452 593 428 615 _c
404 637 368 648 321 648 _c
197 648 _l
_cl}_e}_d
/V{684 0 8 0 676 729 _sc
286 0 _m
8 729 _l
111 729 _l
342 115 _l
573 729 _l
676 729 _l
398 0 _l
286 0 _l
_cl}_d
/a{{613 0 60 -13 522 560 _sc
343 275 _m
270 275 220 266 192 250 _c
164 233 150 205 150 165 _c
150 133 160 107 181 89 _c
202 70 231 61 267 61 _c
317 61 357 78 387 114 _c
417 149 432 196 432 255 _c
432 275 _l
343 275 _l
522 312 _m
522 0 _l
432 0 _l
432 83 _l
411 49 385 25 355 10 _c
325 -5 287 -13 243 -13 _c
187 -13 142 2 109 33 _c
76 64 60 106 60 159 _c
}_e{60 220 80 266 122 298 _c
163 329 224 345 306 345 _c
432 345 _l
432 354 _l
432 395 418 427 391 450 _c
364 472 326 484 277 484 _c
245 484 215 480 185 472 _c
155 464 127 453 100 439 _c
100 522 _l
132 534 164 544 195 550 _c
226 556 256 560 286 560 _c
365 560 424 539 463 498 _c
502 457 522 395 522 312 _c
_cl}_e}_d
/e{{615 0 55 -13 562 560 _sc
562 296 _m
562 252 _l
149 252 _l
153 190 171 142 205 110 _c
238 78 284 62 344 62 _c
378 62 412 66 444 74 _c
476 82 509 95 541 113 _c
541 28 _l
509 14 476 3 442 -3 _c
408 -9 373 -13 339 -13 _c
251 -13 182 12 131 62 _c
80 112 55 181 55 268 _c
55 357 79 428 127 481 _c
175 533 241 560 323 560 _c
397 560 455 536 498 489 _c
}_e{540 441 562 377 562 296 _c
472 322 _m
471 371 457 410 431 440 _c
404 469 368 484 324 484 _c
274 484 234 469 204 441 _c
174 413 156 373 152 322 _c
472 322 _l
_cl}_e}_d
/f{352 0 23 0 371 760 _sc
371 760 _m
371 685 _l
285 685 _l
253 685 230 678 218 665 _c
205 652 199 629 199 595 _c
199 547 _l
347 547 _l
347 477 _l
199 477 _l
199 0 _l
109 0 _l
109 477 _l
23 477 _l
23 547 _l
109 547 _l
109 585 _l
109 645 123 690 151 718 _c
179 746 224 760 286 760 _c
371 760 _l
_cl}_d
/g{{635 0 55 -207 544 560 _sc
454 280 _m
454 344 440 395 414 431 _c
387 467 349 485 301 485 _c
253 485 215 467 188 431 _c
161 395 148 344 148 280 _c
148 215 161 165 188 129 _c
215 93 253 75 301 75 _c
349 75 387 93 414 129 _c
440 165 454 215 454 280 _c
544 68 _m
544 -24 523 -93 482 -139 _c
440 -184 377 -207 292 -207 _c
260 -207 231 -204 203 -200 _c
175 -195 147 -188 121 -178 _c
}_e{121 -91 _l
147 -105 173 -115 199 -122 _c
225 -129 251 -133 278 -133 _c
336 -133 380 -117 410 -87 _c
439 -56 454 -10 454 52 _c
454 96 _l
435 64 411 40 382 24 _c
353 8 319 0 279 0 _c
211 0 157 25 116 76 _c
75 127 55 195 55 280 _c
55 364 75 432 116 483 _c
157 534 211 560 279 560 _c
319 560 353 552 382 536 _c
411 520 435 496 454 464 _c
454 547 _l
544 547 _l
}_e{544 68 _l
_cl}_e}_d
/i{278 0 94 0 184 760 _sc
94 547 _m
184 547 _l
184 0 _l
94 0 _l
94 547 _l
94 760 _m
184 760 _l
184 646 _l
94 646 _l
94 760 _l
_cl}_d
/k{579 0 91 0 576 760 _sc
91 760 _m
181 760 _l
181 311 _l
449 547 _l
564 547 _l
274 291 _l
576 0 _l
459 0 _l
181 267 _l
181 0 _l
91 0 _l
91 760 _l
_cl}_d
/l{278 0 94 0 184 760 _sc
94 760 _m
184 760 _l
184 0 _l
94 0 _l
94 760 _l
_cl}_d
/m{{974 0 91 0 889 560 _sc
520 442 _m
542 482 569 511 600 531 _c
631 550 668 560 711 560 _c
767 560 811 540 842 500 _c
873 460 889 403 889 330 _c
889 0 _l
799 0 _l
799 327 _l
799 379 789 418 771 444 _c
752 469 724 482 686 482 _c
639 482 602 466 575 435 _c
548 404 535 362 535 309 _c
535 0 _l
445 0 _l
445 327 _l
445 379 435 418 417 444 _c
398 469 369 482 331 482 _c
}_e{285 482 248 466 221 435 _c
194 404 181 362 181 309 _c
181 0 _l
91 0 _l
91 547 _l
181 547 _l
181 462 _l
201 495 226 520 255 536 _c
283 552 317 560 357 560 _c
397 560 430 550 458 530 _c
486 510 506 480 520 442 _c
_cl}_e}_d
/n{634 0 91 0 549 560 _sc
549 330 _m
549 0 _l
459 0 _l
459 327 _l
459 379 448 417 428 443 _c
408 469 378 482 338 482 _c
289 482 251 466 223 435 _c
195 404 181 362 181 309 _c
181 0 _l
91 0 _l
91 547 _l
181 547 _l
181 462 _l
202 494 227 519 257 535 _c
286 551 320 560 358 560 _c
420 560 468 540 500 501 _c
532 462 549 405 549 330 _c
_cl}_d
/o{612 0 55 -13 557 560 _sc
306 484 _m
258 484 220 465 192 427 _c
164 389 150 338 150 273 _c
150 207 163 156 191 118 _c
219 80 257 62 306 62 _c
354 62 392 80 420 118 _c
448 156 462 207 462 273 _c
462 337 448 389 420 427 _c
392 465 354 484 306 484 _c
306 560 _m
384 560 445 534 490 484 _c
534 433 557 363 557 273 _c
557 183 534 113 490 63 _c
445 12 384 -13 306 -13 _c
227 -13 165 12 121 63 _c
77 113 55 183 55 273 _c
55 363 77 433 121 484 _c
165 534 227 560 306 560 _c
_cl}_d
/r{411 0 91 0 411 560 _sc
411 463 _m
401 469 390 473 378 476 _c
366 478 353 480 339 480 _c
288 480 249 463 222 430 _c
194 397 181 350 181 288 _c
181 0 _l
91 0 _l
91 547 _l
181 547 _l
181 462 _l
199 495 224 520 254 536 _c
284 552 321 560 365 560 _c
371 560 378 559 386 559 _c
393 558 401 557 411 555 _c
411 463 _l
_cl}_d
/s{{521 0 54 -13 472 560 _sc
443 531 _m
443 446 _l
417 458 391 468 364 475 _c
336 481 308 485 279 485 _c
234 485 200 478 178 464 _c
156 450 145 430 145 403 _c
145 382 153 366 169 354 _c
185 342 217 330 265 320 _c
296 313 _l
360 299 405 279 432 255 _c
458 230 472 195 472 151 _c
472 100 452 60 412 31 _c
372 1 316 -13 246 -13 _c
216 -13 186 -10 154 -5 _c
}_e{122 0 89 8 54 20 _c
54 113 _l
87 95 120 82 152 74 _c
184 65 216 61 248 61 _c
290 61 323 68 346 82 _c
368 96 380 117 380 144 _c
380 168 371 187 355 200 _c
339 213 303 226 247 238 _c
216 245 _l
160 257 119 275 95 299 _c
70 323 58 356 58 399 _c
58 450 76 490 112 518 _c
148 546 200 560 268 560 _c
301 560 332 557 362 552 _c
391 547 418 540 443 531 _c
}_e{_cl}_e}_d
/t{392 0 27 0 368 702 _sc
183 702 _m
183 547 _l
368 547 _l
368 477 _l
183 477 _l
183 180 _l
183 135 189 106 201 94 _c
213 81 238 75 276 75 _c
368 75 _l
368 0 _l
276 0 _l
206 0 158 13 132 39 _c
106 65 93 112 93 180 _c
93 477 _l
27 477 _l
27 547 _l
93 547 _l
93 702 _l
183 702 _l
_cl}_d
/u{634 0 85 -13 543 547 _sc
85 216 _m
85 547 _l
175 547 _l
175 219 _l
175 167 185 129 205 103 _c
225 77 255 64 296 64 _c
344 64 383 79 411 110 _c
439 141 453 183 453 237 _c
453 547 _l
543 547 _l
543 0 _l
453 0 _l
453 84 _l
431 50 405 26 377 10 _c
348 -5 315 -13 277 -13 _c
214 -13 166 6 134 45 _c
101 83 85 140 85 216 _c
_cl}_d
/v{592 0 30 0 562 547 _sc
30 547 _m
125 547 _l
296 88 _l
467 547 _l
562 547 _l
357 0 _l
235 0 _l
30 547 _l
_cl}_d
/y{592 0 30 -207 562 547 _sc
322 -50 _m
296 -114 271 -157 247 -177 _c
223 -197 191 -207 151 -207 _c
79 -207 _l
79 -132 _l
132 -132 _l
156 -132 175 -126 189 -114 _c
203 -102 218 -75 235 -31 _c
251 9 _l
30 547 _l
125 547 _l
296 119 _l
467 547 _l
562 547 _l
322 -50 _l
_cl}_d
/minus{838 0 106 272 732 355 _sc
106 355 _m
732 355 _l
732 272 _l
106 272 _l
106 355 _l
_cl}_d
end readonly def

/BuildGlyph
 {exch begin
 CharStrings exch
 2 copy known not{pop /.notdef}if
 true 3 1 roll get exec
 end}_d

/BuildChar {
 1 index /Encoding get exch get
 1 index /BuildGlyph get exec
}_d

FontName currentdict end definefont pop
%!PS-Adobe-3.0 Resource-Font
%%Title: STIXGeneral-Regular
%%Copyright: Copyright (c) 2001-2010 by the STI Pub Companies, consisting of the American Chemical Society, the American Institute of Physics, the American Mathematical Society, the American Physical Society, Elsevier, Inc., and The Institute of Electrical and Electronic Engineers, Inc. Portions copyright (c) 1998-2003 by MicroPress, Inc. Portions copyright (c) 1990 by Elsevier, Inc. All rights reserved.
%%Creator: Converted from TrueType to type 3 by PPR
25 dict begin
/_d{bind def}bind def
/_m{moveto}_d
/_l{lineto}_d
/_cl{closepath eofill}_d
/_c{curveto}_d
/_sc{7 -1 roll{setcachedevice}{pop pop pop pop pop pop}ifelse}_d
/_e{exec}_d
/FontName /STIXGeneral-Regular def
/PaintType 0 def
/FontMatrix[.001 0 0 .001 0 0]def
/FontBBox[-970 -443 2000 1023]def
/FontType 3 def
/Encoding [ /uni212B ] def
/FontInfo 10 dict dup begin
/FamilyName (STIXGeneral) def
/FullName (STIXGeneral-Regular) def
/Notice (Copyright (c) 2001-2010 by the STI Pub Companies, consisting of the American Chemical Society, the American Institute of Physics, the American Mathematical Society, the American Physical Society, Elsevier, Inc., and The Institute of Electrical and Electronic Engineers, Inc. Portions copyright (c) 1998-2003 by MicroPress, Inc. Portions copyright (c) 1990 by Elsevier, Inc. All rights reserved. STIX Fonts(TM) is a trademark of The Institute of Electrical and Electronics Engineers, Inc.) def
/Weight (Regular) def
/Version (Version 1.0.0) def
/ItalicAngle 0.0 def
/isFixedPitch false def
/UnderlinePosition -75 def
/UnderlineThickness 50 def
end readonly def
/CharStrings 1 dict dup begin
/uni212B{{722 0 15 0 707 871 _sc
141 186 _m
346 673 _l
321 675 300 686 284 705 _c
268 723 260 746 260 772 _c
260 799 269 822 289 842 _c
309 861 333 871 361 871 _c
387 871 410 861 430 841 _c
449 821 459 798 459 771 _c
459 745 450 722 433 704 _c
415 685 394 674 368 672 _c
613 111 _l
627 76 640 53 652 41 _c
664 29 682 21 707 19 _c
707 0 _l
452 0 _l
452 19 _l
}_e{478 19 497 22 507 28 _c
516 32 521 40 521 52 _c
521 69 514 92 502 122 _c
461 216 _l
199 216 _l
153 102 _l
147 86 144 72 144 60 _c
144 44 149 34 160 28 _c
171 22 189 19 214 19 _c
214 0 _l
15 0 _l
15 19 _l
43 21 63 31 76 49 _c
88 67 110 112 141 186 _c
425 772 _m
425 790 418 805 405 818 _c
392 830 376 837 358 837 _c
}_e{340 837 325 830 313 817 _c
300 804 294 789 294 772 _c
294 753 300 737 313 725 _c
325 712 340 706 358 706 _c
376 706 392 712 405 725 _c
418 737 425 753 425 772 _c
447 257 _m
331 532 _l
216 257 _l
447 257 _l
_cl}_e}_d
end readonly def

/BuildGlyph
 {exch begin
 CharStrings exch
 2 copy known not{pop /.notdef}if
 true 3 1 roll get exec
 end}_d

/BuildChar {
 1 index /Encoding get exch get
 1 index /BuildGlyph get exec
}_d

FontName currentdict end definefont pop
%!PS-Adobe-3.0 Resource-Font
%%Title: Bitstream Vera Sans Bold
%%Copyright: Copyright (c) 2003 by Bitstream, Inc. All Rights Reserved.
%%Creator: Converted from TrueType to type 3 by PPR
25 dict begin
/_d{bind def}bind def
/_m{moveto}_d
/_l{lineto}_d
/_cl{closepath eofill}_d
/_c{curveto}_d
/_sc{7 -1 roll{setcachedevice}{pop pop pop pop pop pop}ifelse}_d
/_e{exec}_d
/FontName /BitstreamVeraSans-Bold def
/PaintType 0 def
/FontMatrix[.001 0 0 .001 0 0]def
/FontBBox[-199 -236 1417 928]def
/FontType 3 def
/Encoding [ /A /B /C /F /P /R /a /b /e /i /k /l /m /n /o /r /s /t /u /y ] def
/FontInfo 10 dict dup begin
/FamilyName (Bitstream Vera Sans) def
/FullName (Bitstream Vera Sans Bold) def
/Notice (Copyright (c) 2003 by Bitstream, Inc. All Rights Reserved. Bitstream Vera is a trademark of Bitstream, Inc.) def
/Weight (Bold) def
/Version (Release 1.10) def
/ItalicAngle 0.0 def
/isFixedPitch false def
/UnderlinePosition -227 def
/UnderlineThickness 258 def
end readonly def
/CharStrings 20 dict dup begin
/A{774 0 5 0 769 729 _sc
534 133 _m
240 133 _l
194 0 _l
5 0 _l
275 729 _l
499 729 _l
769 0 _l
580 0 _l
534 133 _l
287 268 _m
487 268 _l
387 558 _l
287 268 _l
_cl}_d
/B{{762 0 92 0 692 729 _sc
384 447 _m
413 447 435 453 451 466 _c
466 479 474 498 474 524 _c
474 549 466 568 451 581 _c
435 594 413 601 384 601 _c
280 601 _l
280 447 _l
384 447 _l
390 128 _m
428 128 456 136 475 152 _c
494 168 504 192 504 224 _c
504 255 494 279 475 295 _c
456 311 428 319 390 319 _c
280 319 _l
280 128 _l
390 128 _l
565 390 _m
605 378 636 357 658 325 _c
}_e{680 293 692 255 692 209 _c
692 139 668 86 620 52 _c
572 17 500 0 404 0 _c
92 0 _l
92 729 _l
374 729 _l
475 729 548 713 594 683 _c
639 652 662 603 662 536 _c
662 500 653 470 637 445 _c
620 420 596 402 565 390 _c
_cl}_e}_d
/C{{734 0 50 -13 670 742 _sc
670 40 _m
635 22 599 8 562 0 _c
524 -8 485 -13 445 -13 _c
323 -13 227 20 156 88 _c
85 155 50 247 50 364 _c
50 480 85 572 156 640 _c
227 708 323 742 445 742 _c
485 742 524 737 562 728 _c
599 719 635 706 670 688 _c
670 537 _l
635 561 601 578 567 589 _c
533 600 497 606 460 606 _c
392 606 339 584 301 541 _c
263 498 244 439 244 364 _c
}_e{244 288 263 229 301 186 _c
339 143 392 122 460 122 _c
497 122 533 127 567 138 _c
601 149 635 167 670 191 _c
670 40 _l
_cl}_e}_d
/F{683 0 92 0 599 729 _sc
92 729 _m
599 729 _l
599 587 _l
280 587 _l
280 451 _l
580 451 _l
580 309 _l
280 309 _l
280 0 _l
92 0 _l
92 729 _l
_cl}_d
/P{733 0 92 0 692 729 _sc
92 729 _m
404 729 _l
496 729 567 708 617 667 _c
667 625 692 567 692 491 _c
692 414 667 355 617 314 _c
567 273 496 253 404 253 _c
280 253 _l
280 0 _l
92 0 _l
92 729 _l
280 593 _m
280 389 _l
384 389 _l
420 389 448 397 468 415 _c
488 433 498 458 498 491 _c
498 523 488 548 468 566 _c
448 584 420 593 384 593 _c
280 593 _l
_cl}_d
/R{{770 0 92 0 750 729 _sc
359 406 _m
398 406 426 413 443 428 _c
460 442 469 466 469 500 _c
469 533 460 557 443 571 _c
426 585 398 593 359 593 _c
280 593 _l
280 406 _l
359 406 _l
280 276 _m
280 0 _l
92 0 _l
92 729 _l
379 729 _l
475 729 545 712 590 680 _c
634 648 657 597 657 528 _c
657 480 645 440 622 409 _c
598 378 563 355 517 341 _c
543 335 566 321 586 301 _c
}_e{606 280 627 249 648 207 _c
750 0 _l
550 0 _l
461 181 _l
443 217 424 242 406 256 _c
388 269 363 276 333 276 _c
280 276 _l
_cl}_e}_d
/a{{675 0 43 -13 596 560 _sc
329 246 _m
292 246 264 239 246 227 _c
228 215 219 197 219 173 _c
219 151 226 133 241 121 _c
256 108 277 102 303 102 _c
336 102 364 113 386 137 _c
408 161 420 190 420 226 _c
420 246 _l
329 246 _l
596 312 _m
596 0 _l
420 0 _l
420 81 _l
396 47 370 23 341 9 _c
311 -5 276 -13 234 -13 _c
177 -13 131 3 96 36 _c
60 68 43 111 43 164 _c
}_e{43 228 65 275 109 305 _c
153 335 222 350 317 350 _c
420 350 _l
420 364 _l
420 391 409 411 387 424 _c
365 437 331 444 285 444 _c
247 444 212 440 180 432 _c
148 424 118 413 91 399 _c
91 532 _l
128 541 165 548 203 553 _c
241 557 279 560 317 560 _c
415 560 486 540 530 501 _c
574 462 596 399 596 312 _c
_cl}_e}_d
/b{{716 0 84 -13 671 760 _sc
375 113 _m
412 113 440 126 460 154 _c
480 181 490 221 490 273 _c
490 325 480 364 460 392 _c
440 419 412 433 375 433 _c
337 433 309 419 289 392 _c
269 364 259 325 259 273 _c
259 221 269 181 289 154 _c
309 126 337 113 375 113 _c
259 467 _m
283 499 309 522 339 537 _c
368 552 402 560 440 560 _c
507 560 562 533 606 479 _c
649 425 671 357 671 273 _c
}_e{671 188 649 119 606 66 _c
562 13 507 -13 440 -13 _c
402 -13 368 -5 339 9 _c
309 23 283 47 259 79 _c
259 0 _l
84 0 _l
84 760 _l
259 760 _l
259 467 _l
_cl}_e}_d
/e{{678 0 43 -13 630 560 _sc
630 275 _m
630 225 _l
221 225 _l
225 184 240 153 266 133 _c
291 112 326 102 372 102 _c
408 102 446 107 485 118 _c
523 129 563 146 604 168 _c
604 33 _l
562 17 521 6 480 -1 _c
438 -9 397 -13 356 -13 _c
257 -13 180 12 125 62 _c
70 112 43 182 43 273 _c
43 362 70 432 124 483 _c
178 534 252 560 346 560 _c
432 560 500 534 552 482 _c
}_e{604 430 630 361 630 275 _c
450 333 _m
450 366 440 393 421 413 _c
401 433 376 444 345 444 _c
311 444 283 434 262 415 _c
241 396 228 369 223 333 _c
450 333 _l
_cl}_e}_d
/i{343 0 84 0 259 760 _sc
84 547 _m
259 547 _l
259 0 _l
84 0 _l
84 547 _l
84 760 _m
259 760 _l
259 617 _l
84 617 _l
84 760 _l
_cl}_d
/k{665 0 84 0 684 760 _sc
84 760 _m
259 760 _l
259 346 _l
460 547 _l
663 547 _l
396 296 _l
684 0 _l
472 0 _l
259 228 _l
259 0 _l
84 0 _l
84 760 _l
_cl}_d
/l{343 0 84 0 259 760 _sc
84 760 _m
259 760 _l
259 0 _l
84 0 _l
84 760 _l
_cl}_d
/m{{1042 0 83 0 963 560 _sc
591 456 _m
613 490 639 515 669 533 _c
699 551 733 560 770 560 _c
832 560 880 540 913 502 _c
946 463 963 407 963 333 _c
963 0 _l
787 0 _l
787 285 _l
787 289 788 294 788 298 _c
788 302 788 309 788 318 _c
788 356 782 384 771 402 _c
759 419 741 428 716 428 _c
682 428 657 414 639 387 _c
621 359 611 320 611 269 _c
611 0 _l
435 0 _l
435 285 _l
}_e{435 345 429 384 419 402 _c
409 419 390 428 364 428 _c
330 428 304 414 286 387 _c
268 359 259 320 259 269 _c
259 0 _l
83 0 _l
83 547 _l
259 547 _l
259 467 _l
280 497 305 520 333 536 _c
361 552 391 560 425 560 _c
462 560 495 550 524 532 _c
553 514 575 488 591 456 _c
_cl}_e}_d
/n{712 0 84 0 634 560 _sc
634 333 _m
634 0 _l
458 0 _l
458 54 _l
458 255 _l
458 302 457 334 455 352 _c
453 370 449 383 444 392 _c
437 403 428 412 416 418 _c
404 424 390 428 376 428 _c
339 428 310 414 290 386 _c
269 358 259 319 259 269 _c
259 0 _l
84 0 _l
84 547 _l
259 547 _l
259 467 _l
285 499 312 522 342 537 _c
372 552 405 560 441 560 _c
504 560 552 540 585 502 _c
617 463 634 407 634 333 _c
_cl}_d
/o{687 0 43 -13 644 560 _sc
344 435 _m
305 435 275 421 255 393 _c
235 365 225 325 225 273 _c
225 220 235 180 255 152 _c
275 124 305 111 344 111 _c
382 111 411 124 431 152 _c
451 180 462 220 462 273 _c
462 325 451 365 431 393 _c
411 421 382 435 344 435 _c
344 560 _m
438 560 511 534 564 484 _c
617 433 644 363 644 273 _c
644 183 617 112 564 62 _c
511 12 438 -13 344 -13 _c
250 -13 176 12 123 62 _c
69 112 43 183 43 273 _c
43 363 69 433 123 484 _c
176 534 250 560 344 560 _c
_cl}_d
/r{493 0 84 0 490 560 _sc
490 398 _m
474 405 459 410 444 414 _c
429 417 414 419 399 419 _c
354 419 319 404 295 376 _c
271 347 259 306 259 252 _c
259 0 _l
84 0 _l
84 547 _l
259 547 _l
259 457 _l
281 493 306 519 336 535 _c
365 551 400 560 441 560 _c
447 560 453 559 460 559 _c
466 559 476 558 490 556 _c
490 398 _l
_cl}_d
/s{{595 0 52 -13 548 560 _sc
511 530 _m
511 397 _l
473 412 437 424 403 432 _c
368 440 335 444 304 444 _c
270 444 246 439 230 431 _c
214 423 206 410 206 393 _c
206 379 212 368 224 361 _c
236 353 258 348 290 344 _c
321 340 _l
410 328 470 310 501 284 _c
532 258 548 217 548 161 _c
548 103 526 59 483 30 _c
440 1 376 -13 291 -13 _c
255 -13 217 -10 179 -5 _c
}_e{140 0 100 8 60 20 _c
60 153 _l
94 135 130 122 167 114 _c
203 106 241 102 279 102 _c
313 102 338 106 356 116 _c
373 125 382 139 382 158 _c
382 174 376 185 364 193 _c
352 201 328 207 293 211 _c
262 215 _l
184 224 130 242 99 269 _c
67 295 52 335 52 389 _c
52 447 71 490 111 518 _c
151 546 212 560 294 560 _c
326 560 359 557 395 552 _c
431 547 469 540 511 530 _c
}_e{_cl}_e}_d
/t{478 0 13 0 455 702 _sc
275 702 _m
275 547 _l
455 547 _l
455 422 _l
275 422 _l
275 190 _l
275 164 280 147 290 138 _c
300 129 320 125 350 125 _c
440 125 _l
440 0 _l
290 0 _l
221 0 172 14 143 43 _c
114 71 100 120 100 190 _c
100 422 _l
13 422 _l
13 547 _l
100 547 _l
100 702 _l
275 702 _l
_cl}_d
/u{{712 0 78 -13 628 547 _sc
78 213 _m
78 547 _l
254 547 _l
254 492 _l
254 462 253 425 253 380 _c
253 335 253 305 253 291 _c
253 247 254 215 256 196 _c
258 176 262 162 268 154 _c
275 142 284 133 296 127 _c
307 121 320 118 336 118 _c
372 118 401 132 422 160 _c
442 188 453 227 453 277 _c
453 547 _l
628 547 _l
628 0 _l
453 0 _l
453 79 _l
427 47 399 23 369 9 _c
}_e{339 -5 307 -13 272 -13 _c
208 -13 160 6 127 44 _c
94 82 78 139 78 213 _c
_cl}_e}_d
/y{652 0 12 -215 634 547 _sc
12 547 _m
187 547 _l
334 176 _l
459 547 _l
634 547 _l
404 -51 _l
380 -111 353 -154 323 -178 _c
292 -202 251 -215 201 -215 _c
100 -215 _l
100 -100 _l
155 -100 _l
184 -100 205 -95 219 -86 _c
233 -76 243 -59 251 -35 _c
256 -20 _l
12 547 _l
_cl}_d
end readonly def

/BuildGlyph
 {exch begin
 CharStrings exch
 2 copy known not{pop /.notdef}if
 true 3 1 roll get exec
 end}_d

/BuildChar {
 1 index /Encoding get exch get
 1 index /BuildGlyph get exec
}_d

FontName currentdict end definefont pop
%!PS-Adobe-3.0 Resource-Font
%%Title: cmr10
%%Copyright: Copyright (C) 1994, Basil K. Malyshev. All Rights Reserved.012BaKoMa Fonts Collection, Level-B.
%%Creator: Converted from TrueType to type 3 by PPR
25 dict begin
/_d{bind def}bind def
/_m{moveto}_d
/_l{lineto}_d
/_cl{closepath eofill}_d
/_c{curveto}_d
/_sc{7 -1 roll{setcachedevice}{pop pop pop pop pop pop}ifelse}_d
/_e{exec}_d
/FontName /Cmr10 def
/PaintType 0 def
/FontMatrix[.001 0 0 .001 0 0]def
/FontBBox[-44 -250 1009 750]def
/FontType 3 def
/Encoding [ /three ] def
/FontInfo 10 dict dup begin
/FamilyName (cmr10) def
/FullName (cmr10) def
/Notice (Copyright (C) 1994, Basil K. Malyshev. All Rights Reserved.012BaKoMa Fonts Collection, Level-B. ) def
/Weight (Regular) def
/Version (1.1/12-Nov-94) def
/ItalicAngle 0.0 def
/isFixedPitch false def
/UnderlinePosition -133 def
/UnderlineThickness 20 def
end readonly def
/CharStrings 1 dict dup begin
/three{{500 0 42 -21 457 666 _sc
95 77 _m
111 54 132 37 158 26 _c
184 15 213 10 243 10 _c
281 10 309 26 325 59 _c
341 92 350 130 350 172 _c
350 190 348 209 345 228 _c
341 247 335 265 327 281 _c
319 297 308 310 294 320 _c
280 330 262 335 242 335 _c
176 335 _l
170 335 167 338 167 344 _c
167 353 _l
167 358 170 361 176 361 _c
231 365 _l
254 365 273 373 289 391 _c
}_e{305 409 316 430 323 456 _c
330 481 334 505 334 528 _c
334 560 326 586 311 606 _c
296 626 273 637 243 637 _c
217 637 193 632 170 622 _c
147 612 129 598 115 579 _c
116 579 117 580 118 580 _c
119 580 120 580 122 580 _c
137 580 150 574 160 564 _c
170 554 175 541 175 527 _c
175 512 170 499 160 489 _c
150 479 137 474 122 474 _c
107 474 94 479 84 489 _c
}_e{74 499 69 512 69 527 _c
69 555 77 580 95 601 _c
112 622 134 638 161 649 _c
188 660 215 666 243 666 _c
263 666 284 663 307 657 _c
329 651 350 642 368 631 _c
386 619 401 605 413 588 _c
424 570 430 550 430 528 _c
430 500 423 474 411 450 _c
399 426 382 406 360 389 _c
338 371 314 358 288 350 _c
317 344 345 333 371 317 _c
397 301 417 280 433 255 _c
}_e{449 229 457 202 457 173 _c
457 136 446 103 426 73 _c
406 43 379 19 347 3 _c
314 -13 279 -21 243 -21 _c
211 -21 180 -15 149 -3 _c
117 8 92 25 72 49 _c
52 73 42 101 42 135 _c
42 151 47 165 58 176 _c
69 187 83 193 100 193 _c
110 193 120 190 129 185 _c
138 180 145 173 150 164 _c
155 154 158 145 158 135 _c
158 118 152 104 141 93 _c
}_e{129 82 116 77 100 77 _c
95 77 _l
_cl}_e}_d
end readonly def

/BuildGlyph
 {exch begin
 CharStrings exch
 2 copy known not{pop /.notdef}if
 true 3 1 roll get exec
 end}_d

/BuildChar {
 1 index /Encoding get exch get
 1 index /BuildGlyph get exec
}_d

FontName currentdict end definefont pop
end
%%EndProlog
mpldict begin
198 252 translate
216 288 0 0 clipbox
gsave
0 0 m
216 0 l
216 288 l
0 288 l
cl
1.000 setgray
fill
grestore
gsave
49.86 45.902 m
197.955 45.902 l
197.955 270.72 l
49.86 270.72 l
cl
1.000 setgray
fill
grestore
1.000 setlinewidth
1 setlinejoin
2 setlinecap
[] 0 setdash
0.647 0.165 0.165 setrgbcolor
gsave
148.1 224.8 49.86 45.9 clipbox
63.3366 338.862 m
stroke
grestore
0 setlinecap
0.000 setgray
gsave
148.1 224.8 49.86 45.9 clipbox
/o {
gsave
newpath
translate
1.0 setlinewidth
1 setlinejoin
0 setlinecap
0 -4.5 m
1.19341 -4.5 2.33811 -4.02585 3.18198 -3.18198 c
4.02585 -2.33811 4.5 -1.19341 4.5 0 c
4.5 1.19341 4.02585 2.33811 3.18198 3.18198 c
2.33811 4.02585 1.19341 4.5 0 4.5 c
-1.19341 4.5 -2.33811 4.02585 -3.18198 3.18198 c
-4.02585 2.33811 -4.5 1.19341 -4.5 0 c
-4.5 -1.19341 -4.02585 -2.33811 -3.18198 -3.18198 c
-2.33811 -4.02585 -1.19341 -4.5 0 -4.5 c
cl
gsave
0.647 0.165 0.165 setrgbcolor
fill
grestore
stroke
grestore
} bind def
63.3366 338.862 o
grestore
2 setlinecap
0.502 setgray
gsave
148.1 224.8 49.86 45.9 clipbox
56.08 126.095 m
stroke
grestore
0 setlinecap
0.000 setgray
gsave
148.1 224.8 49.86 45.9 clipbox
/o {
gsave
newpath
translate
1.0 setlinewidth
1 setlinejoin
0 setlinecap
0 -4.5 m
1.19341 -4.5 2.33811 -4.02585 3.18198 -3.18198 c
4.02585 -2.33811 4.5 -1.19341 4.5 0 c
4.5 1.19341 4.02585 2.33811 3.18198 3.18198 c
2.33811 4.02585 1.19341 4.5 0 4.5 c
-1.19341 4.5 -2.33811 4.02585 -3.18198 3.18198 c
-4.02585 2.33811 -4.5 1.19341 -4.5 0 c
-4.5 -1.19341 -4.02585 -2.33811 -3.18198 -3.18198 c
-2.33811 -4.02585 -1.19341 -4.5 0 -4.5 c
cl
gsave
0.502 setgray
fill
grestore
stroke
grestore
} bind def
56.08 126.095 o
grestore
2 setlinecap
1.000 0.000 0.000 setrgbcolor
gsave
148.1 224.8 49.86 45.9 clipbox
97.1023 90.8656 m
stroke
grestore
0 setlinecap
0.000 setgray
gsave
148.1 224.8 49.86 45.9 clipbox
/o {
gsave
newpath
translate
1.0 setlinewidth
1 setlinejoin
0 setlinecap
0 -4.5 m
1.19341 -4.5 2.33811 -4.02585 3.18198 -3.18198 c
4.02585 -2.33811 4.5 -1.19341 4.5 0 c
4.5 1.19341 4.02585 2.33811 3.18198 3.18198 c
2.33811 4.02585 1.19341 4.5 0 4.5 c
-1.19341 4.5 -2.33811 4.02585 -3.18198 3.18198 c
-4.02585 2.33811 -4.5 1.19341 -4.5 0 c
-4.5 -1.19341 -4.02585 -2.33811 -3.18198 -3.18198 c
-2.33811 -4.02585 -1.19341 -4.5 0 -4.5 c
cl
gsave
1.000 0.000 0.000 setrgbcolor
fill
grestore
stroke
grestore
} bind def
97.1023 90.8656 o
grestore
2 setlinecap
0.000 0.502 0.000 setrgbcolor
gsave
148.1 224.8 49.86 45.9 clipbox
89.9937 147.7 m
stroke
grestore
0 setlinecap
0.000 setgray
gsave
148.1 224.8 49.86 45.9 clipbox
/o {
gsave
newpath
translate
1.0 setlinewidth
1 setlinejoin
0 setlinecap
0 -4.5 m
1.19341 -4.5 2.33811 -4.02585 3.18198 -3.18198 c
4.02585 -2.33811 4.5 -1.19341 4.5 0 c
4.5 1.19341 4.02585 2.33811 3.18198 3.18198 c
2.33811 4.02585 1.19341 4.5 0 4.5 c
-1.19341 4.5 -2.33811 4.02585 -3.18198 3.18198 c
-4.02585 2.33811 -4.5 1.19341 -4.5 0 c
-4.5 -1.19341 -4.02585 -2.33811 -3.18198 -3.18198 c
-2.33811 -4.02585 -1.19341 -4.5 0 -4.5 c
cl
gsave
0.000 0.502 0.000 setrgbcolor
fill
grestore
stroke
grestore
} bind def
89.9937 147.7 o
grestore
2 setlinecap
0.855 0.647 0.125 setrgbcolor
gsave
148.1 224.8 49.86 45.9 clipbox
126.721 223.261 m
stroke
grestore
0 setlinecap
0.000 setgray
gsave
148.1 224.8 49.86 45.9 clipbox
/o {
gsave
newpath
translate
1.0 setlinewidth
1 setlinejoin
0 setlinecap
0 -4.5 m
1.19341 -4.5 2.33811 -4.02585 3.18198 -3.18198 c
4.02585 -2.33811 4.5 -1.19341 4.5 0 c
4.5 1.19341 4.02585 2.33811 3.18198 3.18198 c
2.33811 4.02585 1.19341 4.5 0 4.5 c
-1.19341 4.5 -2.33811 4.02585 -3.18198 3.18198 c
-4.02585 2.33811 -4.5 1.19341 -4.5 0 c
-4.5 -1.19341 -4.02585 -2.33811 -3.18198 -3.18198 c
-2.33811 -4.02585 -1.19341 -4.5 0 -4.5 c
cl
gsave
0.855 0.647 0.125 setrgbcolor
fill
grestore
stroke
grestore
} bind def
126.721 223.261 o
grestore
2 setlinecap
0.000 0.000 1.000 setrgbcolor
gsave
148.1 224.8 49.86 45.9 clipbox
162.708 304.33 m
stroke
grestore
0 setlinecap
0.000 setgray
gsave
148.1 224.8 49.86 45.9 clipbox
/o {
gsave
newpath
translate
1.0 setlinewidth
1 setlinejoin
0 setlinecap
0 -4.5 m
1.19341 -4.5 2.33811 -4.02585 3.18198 -3.18198 c
4.02585 -2.33811 4.5 -1.19341 4.5 0 c
4.5 1.19341 4.02585 2.33811 3.18198 3.18198 c
2.33811 4.02585 1.19341 4.5 0 4.5 c
-1.19341 4.5 -2.33811 4.02585 -3.18198 3.18198 c
-4.02585 2.33811 -4.5 1.19341 -4.5 0 c
-4.5 -1.19341 -4.02585 -2.33811 -3.18198 -3.18198 c
-2.33811 -4.02585 -1.19341 -4.5 0 -4.5 c
cl
gsave
0.000 0.000 1.000 setrgbcolor
fill
grestore
stroke
grestore
} bind def
162.708 304.33 o
grestore
2 setlinecap
0.647 0.165 0.165 setrgbcolor
gsave
148.1 224.8 49.86 45.9 clipbox
70.5933 338.817 m
stroke
grestore
0 setlinejoin
0 setlinecap
0.000 setgray
gsave
148.1 224.8 49.86 45.9 clipbox
/o {
gsave
newpath
translate
1.0 setlinewidth
0 setlinejoin
0 setlinecap
-2.9976e-16 -6.36396 m
3.81838 0 l
1.44329e-16 6.36396 l
-3.81838 8.88178e-16 l
cl
gsave
0.647 0.165 0.165 setrgbcolor
fill
grestore
stroke
grestore
} bind def
70.5933 338.817 o
grestore
1 setlinejoin
2 setlinecap
0.502 setgray
gsave
148.1 224.8 49.86 45.9 clipbox
63.1886 135.784 m
stroke
grestore
0 setlinejoin
0 setlinecap
0.000 setgray
gsave
148.1 224.8 49.86 45.9 clipbox
/o {
gsave
newpath
translate
1.0 setlinewidth
0 setlinejoin
0 setlinecap
-2.9976e-16 -6.36396 m
3.81838 0 l
1.44329e-16 6.36396 l
-3.81838 8.88178e-16 l
cl
gsave
0.502 setgray
fill
grestore
stroke
grestore
} bind def
63.1886 135.784 o
grestore
1 setlinejoin
2 setlinecap
1.000 0.000 0.000 setrgbcolor
gsave
148.1 224.8 49.86 45.9 clipbox
104.951 90.8656 m
stroke
grestore
0 setlinejoin
0 setlinecap
0.000 setgray
gsave
148.1 224.8 49.86 45.9 clipbox
/o {
gsave
newpath
translate
1.0 setlinewidth
0 setlinejoin
0 setlinecap
-2.9976e-16 -6.36396 m
3.81838 0 l
1.44329e-16 6.36396 l
-3.81838 8.88178e-16 l
cl
gsave
1.000 0.000 0.000 setrgbcolor
fill
grestore
stroke
grestore
} bind def
104.951 90.8656 o
grestore
1 setlinejoin
2 setlinecap
0.000 0.502 0.000 setrgbcolor
gsave
148.1 224.8 49.86 45.9 clipbox
98.8794 146.89 m
stroke
grestore
0 setlinejoin
0 setlinecap
0.000 setgray
gsave
148.1 224.8 49.86 45.9 clipbox
/o {
gsave
newpath
translate
1.0 setlinewidth
0 setlinejoin
0 setlinecap
-2.9976e-16 -6.36396 m
3.81838 0 l
1.44329e-16 6.36396 l
-3.81838 8.88178e-16 l
cl
gsave
0.000 0.502 0.000 setrgbcolor
fill
grestore
stroke
grestore
} bind def
98.8794 146.89 o
grestore
1 setlinejoin
2 setlinecap
0.855 0.647 0.125 setrgbcolor
gsave
148.1 224.8 49.86 45.9 clipbox
136.051 212.312 m
stroke
grestore
0 setlinejoin
0 setlinecap
0.000 setgray
gsave
148.1 224.8 49.86 45.9 clipbox
/o {
gsave
newpath
translate
1.0 setlinewidth
0 setlinejoin
0 setlinecap
-2.9976e-16 -6.36396 m
3.81838 0 l
1.44329e-16 6.36396 l
-3.81838 8.88178e-16 l
cl
gsave
0.855 0.647 0.125 setrgbcolor
fill
grestore
stroke
grestore
} bind def
136.051 212.312 o
grestore
1 setlinejoin
2 setlinecap
0.000 0.000 1.000 setrgbcolor
gsave
148.1 224.8 49.86 45.9 clipbox
175.593 284.681 m
stroke
grestore
0 setlinejoin
0 setlinecap
0.000 setgray
gsave
148.1 224.8 49.86 45.9 clipbox
/o {
gsave
newpath
translate
1.0 setlinewidth
0 setlinejoin
0 setlinecap
-2.9976e-16 -6.36396 m
3.81838 0 l
1.44329e-16 6.36396 l
-3.81838 8.88178e-16 l
cl
gsave
0.000 0.000 1.000 setrgbcolor
fill
grestore
stroke
grestore
} bind def
175.593 284.681 o
grestore
1 setlinejoin
2 setlinecap
0.647 0.165 0.165 setrgbcolor
gsave
148.1 224.8 49.86 45.9 clipbox
69.2604 352.014 m
stroke
grestore
0 setlinejoin
0 setlinecap
0.000 setgray
gsave
148.1 224.8 49.86 45.9 clipbox
/o {
gsave
newpath
translate
1.0 setlinewidth
0 setlinejoin
0 setlinecap
-5.51091e-16 -4.5 m
4.5 4.5 l
-4.5 4.5 l
cl
gsave
0.647 0.165 0.165 setrgbcolor
fill
grestore
stroke
grestore
} bind def
69.2604 352.014 o
grestore
1 setlinejoin
2 setlinecap
0.502 setgray
gsave
148.1 224.8 49.86 45.9 clipbox
61.8557 144.08 m
stroke
grestore
0 setlinejoin
0 setlinecap
0.000 setgray
gsave
148.1 224.8 49.86 45.9 clipbox
/o {
gsave
newpath
translate
1.0 setlinewidth
0 setlinejoin
0 setlinecap
-5.51091e-16 -4.5 m
4.5 4.5 l
-4.5 4.5 l
cl
gsave
0.502 setgray
fill
grestore
stroke
grestore
} bind def
61.8557 144.08 o
grestore
1 setlinejoin
2 setlinecap
1.000 0.000 0.000 setrgbcolor
gsave
148.1 224.8 49.86 45.9 clipbox
104.063 90.8656 m
stroke
grestore
0 setlinejoin
0 setlinecap
0.000 setgray
gsave
148.1 224.8 49.86 45.9 clipbox
/o {
gsave
newpath
translate
1.0 setlinewidth
0 setlinejoin
0 setlinecap
-5.51091e-16 -4.5 m
4.5 4.5 l
-4.5 4.5 l
cl
gsave
1.000 0.000 0.000 setrgbcolor
fill
grestore
stroke
grestore
} bind def
104.063 90.8656 o
grestore
1 setlinejoin
2 setlinecap
0.000 0.502 0.000 setrgbcolor
gsave
148.1 224.8 49.86 45.9 clipbox
98.8794 148.329 m
stroke
grestore
0 setlinejoin
0 setlinecap
0.000 setgray
gsave
148.1 224.8 49.86 45.9 clipbox
/o {
gsave
newpath
translate
1.0 setlinewidth
0 setlinejoin
0 setlinecap
-5.51091e-16 -4.5 m
4.5 4.5 l
-4.5 4.5 l
cl
gsave
0.000 0.502 0.000 setrgbcolor
fill
grestore
stroke
grestore
} bind def
98.8794 148.329 o
grestore
1 setlinejoin
2 setlinecap
0.855 0.647 0.125 setrgbcolor
gsave
148.1 224.8 49.86 45.9 clipbox
135.163 207.659 m
stroke
grestore
0 setlinejoin
0 setlinecap
0.000 setgray
gsave
148.1 224.8 49.86 45.9 clipbox
/o {
gsave
newpath
translate
1.0 setlinewidth
0 setlinejoin
0 setlinecap
-5.51091e-16 -4.5 m
4.5 4.5 l
-4.5 4.5 l
cl
gsave
0.855 0.647 0.125 setrgbcolor
fill
grestore
stroke
grestore
} bind def
135.163 207.659 o
grestore
1 setlinejoin
2 setlinecap
0.000 0.000 1.000 setrgbcolor
gsave
148.1 224.8 49.86 45.9 clipbox
173.964 274.812 m
stroke
grestore
0 setlinejoin
0 setlinecap
0.000 setgray
gsave
148.1 224.8 49.86 45.9 clipbox
/o {
gsave
newpath
translate
1.0 setlinewidth
0 setlinejoin
0 setlinecap
-5.51091e-16 -4.5 m
4.5 4.5 l
-4.5 4.5 l
cl
gsave
0.000 0.000 1.000 setrgbcolor
fill
grestore
stroke
grestore
} bind def
173.964 274.812 o
grestore
1 setlinejoin
2 setlinecap
0.647 0.165 0.165 setrgbcolor
gsave
148.1 224.8 49.86 45.9 clipbox
85.9952 350.463 m
stroke
grestore
0 setlinejoin
0 setlinecap
0.000 setgray
gsave
148.1 224.8 49.86 45.9 clipbox
/o {
gsave
newpath
translate
1.0 setlinewidth
0 setlinejoin
0 setlinecap
-4.5 -4.5 m
4.5 -4.5 l
4.5 4.5 l
-4.5 4.5 l
cl
gsave
0.647 0.165 0.165 setrgbcolor
fill
grestore
stroke
grestore
} bind def
85.9952 350.463 o
grestore
1 setlinejoin
2 setlinecap
0.502 setgray
gsave
148.1 224.8 49.86 45.9 clipbox
77.9981 153.073 m
stroke
grestore
0 setlinejoin
0 setlinecap
0.000 setgray
gsave
148.1 224.8 49.86 45.9 clipbox
/o {
gsave
newpath
translate
1.0 setlinewidth
0 setlinejoin
0 setlinecap
-4.5 -4.5 m
4.5 -4.5 l
4.5 4.5 l
-4.5 4.5 l
cl
gsave
0.502 setgray
fill
grestore
stroke
grestore
} bind def
77.9981 153.073 o
grestore
1 setlinejoin
2 setlinecap
1.000 0.000 0.000 setrgbcolor
gsave
148.1 224.8 49.86 45.9 clipbox
120.501 90.8656 m
stroke
grestore
0 setlinejoin
0 setlinecap
0.000 setgray
gsave
148.1 224.8 49.86 45.9 clipbox
/o {
gsave
newpath
translate
1.0 setlinewidth
0 setlinejoin
0 setlinecap
-4.5 -4.5 m
4.5 -4.5 l
4.5 4.5 l
-4.5 4.5 l
cl
gsave
1.000 0.000 0.000 setrgbcolor
fill
grestore
stroke
grestore
} bind def
120.501 90.8656 o
grestore
1 setlinejoin
2 setlinecap
0.000 0.502 0.000 setrgbcolor
gsave
148.1 224.8 49.86 45.9 clipbox
115.91 146.081 m
stroke
grestore
0 setlinejoin
0 setlinecap
0.000 setgray
gsave
148.1 224.8 49.86 45.9 clipbox
/o {
gsave
newpath
translate
1.0 setlinewidth
0 setlinejoin
0 setlinecap
-4.5 -4.5 m
4.5 -4.5 l
4.5 4.5 l
-4.5 4.5 l
cl
gsave
0.000 0.502 0.000 setrgbcolor
fill
grestore
stroke
grestore
} bind def
115.91 146.081 o
grestore
1 setlinejoin
2 setlinecap
0.855 0.647 0.125 setrgbcolor
gsave
148.1 224.8 49.86 45.9 clipbox
153.082 199.947 m
stroke
grestore
0 setlinejoin
0 setlinecap
0.000 setgray
gsave
148.1 224.8 49.86 45.9 clipbox
/o {
gsave
newpath
translate
1.0 setlinewidth
0 setlinejoin
0 setlinecap
-4.5 -4.5 m
4.5 -4.5 l
4.5 4.5 l
-4.5 4.5 l
cl
gsave
0.855 0.647 0.125 setrgbcolor
fill
grestore
stroke
grestore
} bind def
153.082 199.947 o
grestore
1 setlinejoin
2 setlinecap
0.000 0.000 1.000 setrgbcolor
gsave
148.1 224.8 49.86 45.9 clipbox
191.883 262.514 m
stroke
grestore
0 setlinejoin
0 setlinecap
0.000 setgray
gsave
148.1 224.8 49.86 45.9 clipbox
/o {
gsave
newpath
translate
1.0 setlinewidth
0 setlinejoin
0 setlinecap
-4.5 -4.5 m
4.5 -4.5 l
4.5 4.5 l
-4.5 4.5 l
cl
gsave
0.000 0.000 1.000 setrgbcolor
fill
grestore
stroke
grestore
} bind def
191.883 262.514 o
grestore
0.500 setlinewidth
1 setlinejoin
gsave
/o {
gsave
newpath
translate
0.5 setlinewidth
1 setlinejoin
0 setlinecap
0 0 m
0 4 l
gsave
0.000 setgray
fill
grestore
stroke
grestore
} bind def
49.86 45.902 o
grestore
gsave
/o {
gsave
newpath
translate
0.5 setlinewidth
1 setlinejoin
0 setlinecap
0 0 m
0 -4 l
gsave
0.000 setgray
fill
grestore
stroke
grestore
} bind def
49.86 270.72 o
grestore
/BitstreamVeraSans-Roman findfont
9.000 scalefont
setfont
gsave
44.766250 35.058219 translate
0.000000 rotate
0.000000 0.000000 m /two glyphshow
5.726074 0.000000 m /eight glyphshow
grestore
gsave
/o {
gsave
newpath
translate
0.5 setlinewidth
1 setlinejoin
0 setlinecap
0 0 m
0 4 l
gsave
0.000 setgray
fill
grestore
stroke
grestore
} bind def
79.479 45.902 o
grestore
gsave
/o {
gsave
newpath
translate
0.5 setlinewidth
1 setlinejoin
0 setlinecap
0 0 m
0 -4 l
gsave
0.000 setgray
fill
grestore
stroke
grestore
} bind def
79.479 270.72 o
grestore
gsave
74.393063 35.058219 translate
0.000000 rotate
0.000000 0.000000 m /three glyphshow
5.726074 0.000000 m /zero glyphshow
grestore
gsave
/o {
gsave
newpath
translate
0.5 setlinewidth
1 setlinejoin
0 setlinecap
0 0 m
0 4 l
gsave
0.000 setgray
fill
grestore
stroke
grestore
} bind def
109.098 45.902 o
grestore
gsave
/o {
gsave
newpath
translate
0.5 setlinewidth
1 setlinejoin
0 setlinecap
0 0 m
0 -4 l
gsave
0.000 setgray
fill
grestore
stroke
grestore
} bind def
109.098 270.72 o
grestore
gsave
104.160500 35.058219 translate
0.000000 rotate
0.000000 0.000000 m /three glyphshow
5.726074 0.000000 m /two glyphshow
grestore
gsave
/o {
gsave
newpath
translate
0.5 setlinewidth
1 setlinejoin
0 setlinecap
0 0 m
0 4 l
gsave
0.000 setgray
fill
grestore
stroke
grestore
} bind def
138.717 45.902 o
grestore
gsave
/o {
gsave
newpath
translate
0.5 setlinewidth
1 setlinejoin
0 setlinecap
0 0 m
0 -4 l
gsave
0.000 setgray
fill
grestore
stroke
grestore
} bind def
138.717 270.72 o
grestore
gsave
133.584188 35.058219 translate
0.000000 rotate
0.000000 0.000000 m /three glyphshow
5.726074 0.000000 m /four glyphshow
grestore
gsave
/o {
gsave
newpath
translate
0.5 setlinewidth
1 setlinejoin
0 setlinecap
0 0 m
0 4 l
gsave
0.000 setgray
fill
grestore
stroke
grestore
} bind def
168.336 45.902 o
grestore
gsave
/o {
gsave
newpath
translate
0.5 setlinewidth
1 setlinejoin
0 setlinecap
0 0 m
0 -4 l
gsave
0.000 setgray
fill
grestore
stroke
grestore
} bind def
168.336 270.72 o
grestore
gsave
163.234438 35.058219 translate
0.000000 rotate
0.000000 0.000000 m /three glyphshow
5.726074 0.000000 m /six glyphshow
grestore
gsave
/o {
gsave
newpath
translate
0.5 setlinewidth
1 setlinejoin
0 setlinecap
0 0 m
0 4 l
gsave
0.000 setgray
fill
grestore
stroke
grestore
} bind def
197.955 45.902 o
grestore
gsave
/o {
gsave
newpath
translate
0.5 setlinewidth
1 setlinejoin
0 setlinecap
0 0 m
0 -4 l
gsave
0.000 setgray
fill
grestore
stroke
grestore
} bind def
197.955 270.72 o
grestore
gsave
192.876875 35.058219 translate
0.000000 rotate
0.000000 0.000000 m /three glyphshow
5.726074 0.000000 m /eight glyphshow
grestore
gsave
78.407500 16.464469 translate
0.000000 rotate
/BitstreamVeraSans-Roman findfont
11.0 scalefont
setfont
0.000000 0.098219 moveto
/V glyphshow

7.524902 0.098219 moveto
/o glyphshow

14.254883 0.098219 moveto
/l glyphshow

17.311035 0.098219 moveto
/u glyphshow

24.282715 0.098219 moveto
/m glyphshow

34.998047 0.098219 moveto
/e glyphshow

41.765625 0.098219 moveto
/space glyphshow

45.262207 0.098219 moveto
/parenleft glyphshow

/STIXGeneral-Regular findfont
11.0 scalefont
setfont
49.553711 0.098219 moveto
/uni212B glyphshow

/Cmr10 findfont
7.7 scalefont
setfont
57.495712 6.870313 moveto
/three glyphshow

/BitstreamVeraSans-Roman findfont
11.0 scalefont
setfont
64.866400 0.098219 moveto
/slash glyphshow

68.572454 0.098219 moveto
/f glyphshow

72.445013 0.098219 moveto
/period glyphshow

75.941595 0.098219 moveto
/u glyphshow

82.913275 0.098219 moveto
/period glyphshow

86.409857 0.098219 moveto
/parenright glyphshow


grestore
gsave
/o {
gsave
newpath
translate
0.5 setlinewidth
1 setlinejoin
0 setlinecap
0 0 m
4 0 l
gsave
0.000 setgray
fill
grestore
stroke
grestore
} bind def
49.86 45.902 o
grestore
gsave
/o {
gsave
newpath
translate
0.5 setlinewidth
1 setlinejoin
0 setlinecap
0 0 m
-4 0 l
gsave
0.000 setgray
fill
grestore
stroke
grestore
} bind def
197.955 45.902 o
grestore
gsave
28.406875 43.417594 translate
0.000000 rotate
0.000000 0.000000 m /minus glyphshow
7.541016 0.000000 m /two glyphshow
13.267090 0.000000 m /zero glyphshow
grestore
gsave
/o {
gsave
newpath
translate
0.5 setlinewidth
1 setlinejoin
0 setlinecap
0 0 m
4 0 l
gsave
0.000 setgray
fill
grestore
stroke
grestore
} bind def
49.86 90.8656 o
grestore
gsave
/o {
gsave
newpath
translate
0.5 setlinewidth
1 setlinejoin
0 setlinecap
0 0 m
-4 0 l
gsave
0.000 setgray
fill
grestore
stroke
grestore
} bind def
197.955 90.8656 o
grestore
gsave
41.328750 88.381200 translate
0.000000 rotate
0.000000 0.000000 m /zero glyphshow
grestore
gsave
/o {
gsave
newpath
translate
0.5 setlinewidth
1 setlinejoin
0 setlinecap
0 0 m
4 0 l
gsave
0.000 setgray
fill
grestore
stroke
grestore
} bind def
49.86 135.829 o
grestore
gsave
/o {
gsave
newpath
translate
0.5 setlinewidth
1 setlinejoin
0 setlinecap
0 0 m
-4 0 l
gsave
0.000 setgray
fill
grestore
stroke
grestore
} bind def
197.955 135.829 o
grestore
gsave
35.656875 133.344806 translate
0.000000 rotate
0.000000 0.000000 m /two glyphshow
5.726074 0.000000 m /zero glyphshow
grestore
gsave
/o {
gsave
newpath
translate
0.5 setlinewidth
1 setlinejoin
0 setlinecap
0 0 m
4 0 l
gsave
0.000 setgray
fill
grestore
stroke
grestore
} bind def
49.86 180.793 o
grestore
gsave
/o {
gsave
newpath
translate
0.5 setlinewidth
1 setlinejoin
0 setlinecap
0 0 m
-4 0 l
gsave
0.000 setgray
fill
grestore
stroke
grestore
} bind def
197.955 180.793 o
grestore
gsave
35.438125 178.308413 translate
0.000000 rotate
0.000000 0.000000 m /four glyphshow
5.726074 0.000000 m /zero glyphshow
grestore
gsave
/o {
gsave
newpath
translate
0.5 setlinewidth
1 setlinejoin
0 setlinecap
0 0 m
4 0 l
gsave
0.000 setgray
fill
grestore
stroke
grestore
} bind def
49.86 225.756 o
grestore
gsave
/o {
gsave
newpath
translate
0.5 setlinewidth
1 setlinejoin
0 setlinecap
0 0 m
-4 0 l
gsave
0.000 setgray
fill
grestore
stroke
grestore
} bind def
197.955 225.756 o
grestore
gsave
35.625625 223.272019 translate
0.000000 rotate
0.000000 0.000000 m /six glyphshow
5.726074 0.000000 m /zero glyphshow
grestore
gsave
/o {
gsave
newpath
translate
0.5 setlinewidth
1 setlinejoin
0 setlinecap
0 0 m
4 0 l
gsave
0.000 setgray
fill
grestore
stroke
grestore
} bind def
49.86 270.72 o
grestore
gsave
/o {
gsave
newpath
translate
0.5 setlinewidth
1 setlinejoin
0 setlinecap
0 0 m
-4 0 l
gsave
0.000 setgray
fill
grestore
stroke
grestore
} bind def
197.955 270.72 o
grestore
gsave
35.610000 268.235625 translate
0.000000 rotate
0.000000 0.000000 m /eight glyphshow
5.726074 0.000000 m /zero glyphshow
grestore
/BitstreamVeraSans-Roman findfont
11.000 scalefont
setfont
gsave
21.125625 67.975047 translate
90.000000 rotate
0.000000 0.000000 m /E glyphshow
6.950195 0.000000 m /n glyphshow
13.921875 0.000000 m /e glyphshow
20.689453 0.000000 m /r glyphshow
24.961914 0.000000 m /g glyphshow
31.944336 0.000000 m /y glyphshow
38.454102 0.000000 m /space glyphshow
41.950684 0.000000 m /R glyphshow
49.093750 0.000000 m /e glyphshow
55.861328 0.000000 m /l glyphshow
58.917480 0.000000 m /a glyphshow
65.658203 0.000000 m /t glyphshow
69.971191 0.000000 m /i glyphshow
73.027344 0.000000 m /v glyphshow
79.537109 0.000000 m /e glyphshow
86.304688 0.000000 m /space glyphshow
89.801270 0.000000 m /t glyphshow
94.114258 0.000000 m /o glyphshow
100.844238 0.000000 m /space glyphshow
104.340820 0.000000 m /R glyphshow
111.483887 0.000000 m /u glyphshow
118.455566 0.000000 m /t glyphshow
122.768555 0.000000 m /i glyphshow
125.824707 0.000000 m /l glyphshow
128.880859 0.000000 m /e glyphshow
135.648438 0.000000 m /space glyphshow
139.145020 0.000000 m /parenleft glyphshow
143.436523 0.000000 m /k glyphshow
149.806641 0.000000 m /J glyphshow
153.050781 0.000000 m /slash glyphshow
156.756836 0.000000 m /m glyphshow
167.472168 0.000000 m /o glyphshow
174.202148 0.000000 m /l glyphshow
177.258301 0.000000 m /parenright glyphshow
grestore
1.000 setlinewidth
gsave
49.86 270.72 m
197.955 270.72 l
stroke
grestore
gsave
197.955 45.902 m
197.955 270.72 l
stroke
grestore
gsave
49.86 45.902 m
197.955 45.902 l
stroke
grestore
gsave
49.86 45.902 m
49.86 270.72 l
stroke
grestore
0.647 0.165 0.165 setrgbcolor
/BitstreamVeraSans-Bold findfont
9.000 scalefont
setfont
gsave
52.821900 315.683606 translate
0.000000 rotate
0.000000 0.000000 m /F glyphshow
6.147949 0.000000 m /l glyphshow
9.232910 0.000000 m /u glyphshow
15.640137 0.000000 m /o glyphshow
21.823242 0.000000 m /r glyphshow
26.261719 0.000000 m /i glyphshow
29.346680 0.000000 m /t glyphshow
33.648926 0.000000 m /e glyphshow
grestore
0.502 setgray
gsave
52.821900 162.807345 translate
0.000000 rotate
0.000000 0.000000 m /P glyphshow
6.721191 0.000000 m /y glyphshow
12.587891 0.000000 m /r glyphshow
17.026367 0.000000 m /i glyphshow
20.111328 0.000000 m /t glyphshow
24.413574 0.000000 m /e glyphshow
grestore
1.000 0.000 0.000 setrgbcolor
gsave
94.288500 76.252403 translate
0.000000 rotate
0.000000 0.000000 m /R glyphshow
6.930176 0.000000 m /u glyphshow
13.337402 0.000000 m /t glyphshow
17.639648 0.000000 m /i glyphshow
20.724609 0.000000 m /l glyphshow
23.809570 0.000000 m /e glyphshow
grestore
0.000 0.502 0.000 setrgbcolor
gsave
79.479000 131.332821 translate
0.000000 rotate
0.000000 0.000000 m /C glyphshow
6.604980 0.000000 m /o glyphshow
12.788086 0.000000 m /l glyphshow
15.873047 0.000000 m /u glyphshow
22.280273 0.000000 m /m glyphshow
31.658203 0.000000 m /b glyphshow
38.100586 0.000000 m /i glyphshow
41.185547 0.000000 m /t glyphshow
45.487793 0.000000 m /e glyphshow
grestore
0.855 0.647 0.125 setrgbcolor
gsave
94.288500 195.630778 translate
0.000000 rotate
0.000000 0.000000 m /B glyphshow
6.859863 0.000000 m /r glyphshow
11.298340 0.000000 m /o glyphshow
17.481445 0.000000 m /o glyphshow
23.664551 0.000000 m /k glyphshow
29.649902 0.000000 m /i glyphshow
32.734863 0.000000 m /t glyphshow
37.037109 0.000000 m /e glyphshow
grestore
0.000 0.000 1.000 setrgbcolor
gsave
143.159850 259.479098 translate
0.000000 rotate
0.000000 0.000000 m /A glyphshow
6.965332 0.000000 m /n glyphshow
13.372559 0.000000 m /a glyphshow
19.445801 0.000000 m /t glyphshow
23.748047 0.000000 m /a glyphshow
29.821289 0.000000 m /s glyphshow
35.178223 0.000000 m /e glyphshow
grestore
0.000 setgray
gsave
52.86 230.67 m
93.3194 230.67 l
93.3194 267.72 l
52.86 267.72 l
52.86 230.67 l
cl
gsave
1.000 setgray
fill
grestore
stroke
grestore
gsave
/o {
gsave
newpath
translate
1.0 setlinewidth
1 setlinejoin
0 setlinecap
0 -2.7 m
0.716048 -2.7 1.40287 -2.41551 1.90919 -1.90919 c
2.41551 -1.40287 2.7 -0.716048 2.7 0 c
2.7 0.716048 2.41551 1.40287 1.90919 1.90919 c
1.40287 2.41551 0.716048 2.7 0 2.7 c
-0.716048 2.7 -1.40287 2.41551 -1.90919 1.90919 c
-2.41551 1.40287 -2.7 0.716048 -2.7 0 c
-2.7 -0.716048 -2.41551 -1.40287 -1.90919 -1.90919 c
-1.40287 -2.41551 -0.716048 -2.7 0 -2.7 c
cl
gsave
1.000 setgray
fill
grestore
stroke
grestore
} bind def
61.26 262.857 o
grestore
/BitstreamVeraSans-Roman findfont
6.000 scalefont
setfont
gsave
72.060000 260.757500 translate
0.000000 rotate
0.000000 0.000000 m /L glyphshow
3.342773 0.000000 m /D glyphshow
7.837891 0.000000 m /A glyphshow
grestore
0 setlinejoin
gsave
/o {
gsave
newpath
translate
1.0 setlinewidth
0 setlinejoin
0 setlinecap
-1.79856e-16 -3.81838 m
2.29103 0 l
-1.79856e-16 3.81838 l
-2.29103 8.88178e-16 l
cl
gsave
1.000 setgray
fill
grestore
stroke
grestore
} bind def
61.26 254.045 o
grestore
gsave
72.060000 251.945000 translate
0.000000 rotate
0.000000 0.000000 m /P glyphshow
3.618164 0.000000 m /B glyphshow
7.734375 0.000000 m /E glyphshow
11.525391 0.000000 m /s glyphshow
14.651367 0.000000 m /o glyphshow
18.322266 0.000000 m /l glyphshow
grestore
gsave
/o {
gsave
newpath
translate
1.0 setlinewidth
0 setlinejoin
0 setlinecap
-3.30655e-16 -2.7 m
2.7 2.7 l
-2.7 2.7 l
cl
gsave
1.000 setgray
fill
grestore
stroke
grestore
} bind def
61.26 245.232 o
grestore
gsave
72.060000 243.132500 translate
0.000000 rotate
0.000000 0.000000 m /A glyphshow
4.104492 0.000000 m /M glyphshow
9.281250 0.000000 m /zero glyphshow
13.098633 0.000000 m /five glyphshow
grestore
gsave
/o {
gsave
newpath
translate
1.0 setlinewidth
0 setlinejoin
0 setlinecap
-2.7 -2.7 m
2.7 -2.7 l
2.7 2.7 l
-2.7 2.7 l
cl
gsave
1.000 setgray
fill
grestore
stroke
grestore
} bind def
61.26 236.42 o
grestore
gsave
72.060000 234.320000 translate
0.000000 rotate
0.000000 0.000000 m /P glyphshow
3.618164 0.000000 m /B glyphshow
7.734375 0.000000 m /E glyphshow
grestore

end
showpage
